<?xml version="1.0" encoding="utf-8"?>
<!-- Generator: Adobe Illustrator 21.0.2, SVG Export Plug-In . SVG Version: 6.00 Build 0)  -->
<svg version="1.1" id="Layer_1" xmlns="http://www.w3.org/2000/svg" xmlns:xlink="http://www.w3.org/1999/xlink" x="0px" y="0px"
	 viewBox="0 0 500 500" style="enable-background:new 0 0 500 500;" xml:space="preserve">
<style type="text/css">
	.st0{fill:#387799;}
</style>
<path class="st0" d="M247.7,475.7l-0.2,0.2l-0.2-0.1l0.1-0.1l-0.3-0.1l-1.2,0.3l-0.3,0.3l-0.1,0l-0.1-0.1l-0.1-0.4l-0.1-0.1l-0.1,0
	l-0.1,0.1l-0.1,0.1l-0.1,0.1l-0.1,0l-0.2-0.2l-0.1,0l-0.2,0.1l0,0.1l0,0.2l-0.1,0.2l-0.1,0L244,476l-0.1-0.2l-0.1-0.1l-0.2,0
	l-0.3,0.1l-0.1-0.1l-0.1,0H243l-0.1,0l0-0.1l-0.2,0.1l-0.2-0.1l-0.1-0.2l-0.1,0l-0.1,0.3l0,0.2l0,0.3v0.3l0,0.1l0,0.1l0,0.1l-0.1,0
	l-0.1,0l0-0.1l0-0.3l0-0.2l-0.1-0.1l-0.1,0l-0.1,0l-0.1,0l-0.2,0.2l-0.1,0l-0.4-0.1l-0.1-0.1l-0.3-0.4l-0.1-0.1l-0.3,0.1l0.1,0.3
	l0.6,0.6l-0.2,0.2l-0.6,0.3l-0.2,0l-0.5-0.4l-0.3-0.1l-0.1,0.2l-0.1,0.2l-0.3,0.2l-0.2,0.2l-0.1,0.4l1,0.6l-0.1,0.2l-0.1,0.1
	l-0.1,0.1l0.1,0.2l0.1,0l0.5,0l0.2-0.1l0.1-0.1l0.2-0.3l0.1-0.2l0.5-0.3l0.1-0.1l-0.1-0.1l0,0l0.1-0.1l0.1-0.1l0.1,0l0.1,0v0.1
	l-0.1,0.1l0,0.1l0,0.1l0,0.1l0.4,0l0.2,0l0.2-0.1l0.1-0.1l0.2-0.3l0.1-0.1l0.6-0.4l0.2-0.2l0.1,0l0.2,0.1l0.1-0.1l0.1,0l0.2,0
	l-0.1,0.4l-0.1,0.3l0,0.2l0.1,0.2l0.2,0l0.2-0.1l0.1-0.2l1-0.2l0.2-0.1l0-0.1l0-0.1l0-0.1l0.1-0.1l0.1-0.1l0.1,0l0,0l0.4,0l0.2-0.1
	l0.2-0.1l0.1-0.2l0.2-0.1l0.1,0l0,0.3l0,0.1l-0.2,0.4l-0.1,0.2l0.1,0.1l0.1,0l0.5-0.5l0.1-0.1l0.2,0l0.2-0.1l0.1-0.1l0.1-0.4
	l0.1-0.1l0.1-0.1l0.2-0.2l-0.1-0.3L247.7,475.7z M268.6,232.1l-0.2-0.3l-0.1-0.1l0,0.1l0,0.1l-0.1,0.1l-0.1,0l0-0.1l-0.2-0.3
	l-1.1-0.3l-0.4-0.2l-0.2,0l0,0.2l0.1,0.3l0.4,0.6l0.2,0.2l0.2,0.2l0.7,0.2l0.2,0.2l0.2,0.1l0.2,0.1l0.2,0l0.1-0.2l0-0.2L268.6,232.1
	z M267.2,230.8l0.2,0l0.2-0.1l0.1-0.1l0-0.2l-0.3-0.3l-0.4-0.1l-0.8,0l-0.1,0.3l0.1,0.2l0.2,0l0.2-0.2l0.6,0.5L267.2,230.8z
	 M197.5,478.2l-0.2-0.3l-0.1-0.2l-0.2-0.5l-0.1-0.1l0,1l-0.2,0.6l0.8,0l0.2-0.1l0-0.3L197.5,478.2z M355.7,69.9l0.1-0.4l-0.1-0.5
	l-0.2-0.4l-0.5-0.7l-0.1-0.4l-0.1-0.4l-0.1-0.4l-0.3-0.3v0l-0.4-0.3L354,66l0-0.1l0-0.1l0-0.1l0-0.1l-0.1-0.6l0-0.7l0-0.2l-0.1-0.2
	l-0.1-0.1l-0.2-0.2l-0.1-0.1l0-0.1l0-0.1l0-0.1l0-0.1l-0.1-0.4l-0.1-0.3l-0.1-0.1l-0.4,0.3l-0.2,0l-0.1-0.3l0-0.2l-0.1-0.2l-0.1-0.2
	l-0.2-0.1l-0.1,0l-0.1,0l-0.1,0l-0.1,0l-0.2-0.2l-0.1-0.1l-0.1,0.1l0,0.1l0,0.1l0,0.1l0,0.1h-0.1l-0.1-0.1l-0.1-0.1l-0.1-0.1l0-0.2
	L351,61l0.1-0.2l0-0.2l0-0.1l-0.1,0l-0.1,0l-0.1,0l-0.3,0.3l-0.1,0.1l-0.1,0l-0.2-0.1l-0.1,0l-0.1,0l0.2,0.4l0,0.2l-0.2,0l-0.2-0.1
	h-0.1l-0.1,0l-0.1,0.2l-0.1,0.1l-0.1-0.1l-0.1-0.3l-0.1-0.1l-0.2,0l-0.2,0l-0.1,0.1l-0.2,0.2l-0.1,0l-0.2-0.1l-0.1,0l-0.1,0.1
	l-0.1,0.1l0,0.1l0,0.1l0,0.1l-0.1,0.1l-0.2,0.1l-0.1,0.1l0,0.1l0.1,0.2l0,0.1l-0.1,0l-0.1-0.1l0-0.1l0-0.1l0-0.3l-0.1-0.2l-0.2-0.1
	l-0.2-0.1l-0.2,0.1l-0.1-0.1l0-0.2l-0.1-0.1l-0.2-0.1l-0.4,0.1l0,0.2L346,62l0,0.2l-0.2,0.1l-0.4,0l-0.1,0.1v0.3l0.2,0.6l0,0.2
	l0,0.2l0.2,0.3l0.1,0.1l0,0.3l-0.1,0.2l-0.1,0.2l-0.1,0.2l0.1,0.5l0,0.2l-0.1,0.2l-0.1,0l-0.3,0l-0.1,0l-0.1,0.1l0,0.1l0,0.1
	l0.1,0.4l0.1,0.4l0,0.3l-0.2,0.7l0,0.2l0.2,0.2l0,0.2l-0.1,0.1l-0.1,0.2l-0.1,0.2l0,0.1l0,0.2V70l-0.2,0.4l0,0.1l0,0.1l-0.1,0.7
	l-0.1,0.2l-0.1,0.2l-0.3,0.4l-0.3,0.3l-0.2,0.2l-0.1,0.2l0,0.2l0.1,0.2l0,0.2l0,0.3l0,0.3l-0.1,0.3l-0.1,0.2l-0.1,0.1l-0.1,0l0-0.1
	l-0.1,0h-0.5l-0.2,0.1l-0.2,0.2l-0.1,0.2l-0.1,0.5l-0.1,0.2l-0.1,0.2l-0.2,0.2l-0.2,0.1l-0.5,0l-0.2,0.1l-0.7,0.7l-0.1,0.2l0.1,0.5
	l0,0.3l-0.2,0.1l-0.2,0l-0.4,0l-0.2-0.1l-0.2-0.1l-0.2-0.1h-0.3l-0.5,0.3l-0.5,0.1l-0.2,0.1l-0.2,0.1l-0.2,0.2l-0.1,0.2l-0.1,0.2
	l0,0.5l-0.1,0.2l-0.3,0l-0.3,0l-0.2,0l-0.1,0.2l0,0.2l-0.1,0.2l-0.2,0.1l-0.3,0.1l0,0.2l0.3,0.5l0,0.1l0,0.1l0,0.1l-0.1,0.2l0,0.1
	l0,0.1l0,0.2l-0.1,0.3l-0.2,0.2l-0.2,0.1l-0.3,0l-0.3,0.2l-0.4,0.5l-0.4,0.3l-0.6-0.4l-0.3-0.1l-0.1-0.1l-0.1-0.1l-0.2-0.5l-0.2-0.2
	l-0.2-0.1l-0.2,0l-0.3,0l-0.3,0l-0.2,0l-0.7-0.3l-0.3-0.1l-0.3,0l-0.3,0.1l-0.2,0.2l-0.4,0.4l-0.2,0.1l-0.3,0.1l-0.2,0.1l-0.1,0.3
	l0,0.3l0,0.3l-0.1,0.2l-0.2,0.2l-0.2,0.3l-0.1,0.4l-0.2,0.3l-0.3,0.1l-0.3-0.1l-0.3-0.3l-0.3-0.3l-0.2-0.3l-0.4-0.5l-0.7-0.1
	l-0.7,0.2l-0.5,0.4l-0.4,0.1l-0.4-0.2l-0.6-0.7l-0.4-0.2l-0.4,0l-0.4,0.2l-1.1,0.6l-0.3,0.1l-0.4,0l-0.1,0l-0.2,0l-0.1,0l-0.1-0.1
	l-0.3-0.2l-0.1,0l-0.6-0.2l-0.1-0.1l-0.3-0.3l-0.1-0.1l-0.3-0.1h-0.3l-1.1,0.2l-0.3,0l-0.2-0.1l-1.7-0.9l-0.1,0l-1.1-0.2l-0.5-0.2
	l-0.6-0.1l-0.3-0.1l-0.8-0.2l-0.3,0l-0.6,0.1l-0.2,0l-1.2-0.2l-2.9,0.3l-0.9,0.4l0,0l0-0.6l0-0.2l-0.1-0.2l-0.3-0.2l-0.1-0.1
	l-0.1-0.2l0.1-0.3l0.2-0.2l0.2-0.1l0.5-0.1l0.1-0.1l0-0.2v-0.2l0-0.1l0-0.1l0.1-0.1l0.1-0.1l0.1-0.1l0.1,0.1l0,0.1v0l0,0l0.1,0.1
	l0.1,0l0-0.1l0-0.2l0-0.1l0-0.1l0.1-0.2l0.2-0.2l0.1-0.2l-0.2-0.1l0-0.2l0.1-0.2l0.2-0.1l0.5-0.1l0.2-0.1l0.1-0.1l0.1-0.1l0.5,0
	l0.1-0.1l-0.1-0.2l-0.2-0.1l-0.1-0.2l0.1-0.3l0.2-0.1l0.2,0.1l0.2,0l0.1-0.2l0-0.1l-0.1-0.1l0-0.1l0.2-0.1h0.1l0.1,0l0-0.1l0-0.9
	l0.1-0.2l0-0.1l0,0l0.1,0l0.3,0.1l0.1,0l0.1-0.1l0-0.1l-0.1-0.1l-0.1-0.1l0-0.1l0,0l0.2-0.1l0.1-0.1l-0.1-0.1l-0.1-0.2l-0.1-0.1
	l-0.2-0.2l-0.1-0.1l0-0.2l0-0.2l0.1-0.2l0-0.2l0-0.1l0.1-0.1l0-0.1l-0.3-0.2l0-0.1l0.1-0.2l0.4-0.6l0.1-0.2l0-0.2l-0.1-0.4v-0.2
	l0.1-0.1l0.2,0l0.2-0.1l0.2-0.1l0-0.2l-0.2-0.1l-0.2-0.1l-0.1-0.1l0-0.2l0.1,0l0.1,0.1l0.1,0.1l0,0.1l0.1-0.1l0.1-0.2l0.1-0.4
	l0.1-0.1l0.7-0.3l0.4-0.2l1.2-0.9l0.1-0.2v-0.2l-0.5-0.1l0.1-0.2l0.4-0.3l0.1-0.1l0.1-0.1l0-0.1l-0.2-0.1l0-0.1l0-0.1l0.2-0.1
	l0.2-0.1l0.2-0.2l0.1-0.2l-0.2-0.4l0-0.2l0.2-0.1l0.2-0.1l0.2-0.2l0.2-0.2l0.1-0.1l-0.1,0l-0.1,0l-0.1-0.1l-0.1-0.1l0.2-0.3l0.1-0.1
	l0.2-0.1l0.1,0l0.1,0l0.1,0l0.1-0.1l0-0.1l0-0.3l0-0.1l0.3,0l0.2,0l0.1-0.1l0-0.3l0.1-0.1l0.1,0l0.1-0.1l0.1-0.2l0.1-1l0-0.2
	l-0.1-0.2l-0.1-0.2l-0.7-0.5v-0.1l-0.3-0.8l-0.3-0.2l-0.2-0.3l-0.3-0.8l-0.1-0.1l-0.3-0.2l-0.2-0.1l-0.5-0.5l-0.1-0.1l-0.2-0.1h-0.8
	l-0.1-0.1l-0.1-0.1l0-0.1l-0.1-0.1l-0.1,0l-0.2,0l-0.1,0l-0.7-0.4l-0.1,0l-0.1-0.2l-1-0.7l-0.2,0l-0.2,0.1l-0.3,0.3l-0.1,0.1
	l-0.1,0.1l-0.1,0l-0.1,0l-0.1-0.1l0-0.1l-0.1-0.1l-0.7-0.8l-0.2-0.3l-0.1-0.1l-0.2-0.1l-2.3-0.5l-0.1-0.1l0-0.1l-0.1-0.1l-0.1,0
	l-0.1-0.1l-0.1,0l-0.5,0l-0.2-0.1l-2-1.5l-0.3-0.1l-0.1-0.1l-0.2-0.2l-0.1-0.1l-0.1,0l-0.2,0l-0.2-0.1l-0.4-0.3l-0.2-0.1l-0.3-0.2
	l-0.4-0.1l-0.1-0.1l-0.1-0.1l-0.1-0.1l-0.2,0l-0.1,0l-0.1-0.2l-0.3-0.1l-0.2-0.2l-0.2-0.4L295,48l-0.4-0.4l-0.3-0.1l0-0.1l0-0.1
	l0-0.1l-0.1-0.1l-0.2-0.1l-0.2-0.1l-0.1-0.1l-0.1-0.1l-0.1-0.1l-0.2,0l-0.2-0.1l-0.3,0l-0.1,0l-0.1-0.1l-0.2-0.3l-0.4-0.4l-3.8-2.5
	l-0.2,0l-0.2,0l-0.5,0.2l-0.3,0.1l-0.8,0l-0.8-0.1l-0.3,0l-0.1,0l-0.1-0.1l-0.2-0.2l-0.1-0.1l-0.1,0l-0.4,0l-0.7-0.1l-0.3-0.2
	l-0.2-0.1l-0.4,0l-0.1,0l-0.2-0.4l0-0.1l-0.1,0l-0.2-0.1l-0.1,0l-0.1,0l-0.5,0l-0.1,0l-0.2-0.2l-0.1,0l-0.9,0l-0.2,0l-0.3-0.2
	l-0.4-0.3l-0.4-0.2l-0.4,0.1l-0.3-0.2l-0.1-0.1l-0.1-0.3l-0.1-0.1l0-0.2l-0.1-0.2l-0.2-0.2l-0.3-0.2l-0.2-0.3l-0.1-0.1l0.1-0.2
	l0-0.3l0-0.2l-0.1-0.1l-0.2-0.1l-0.2-0.1l-0.1-0.2L276,38l-0.1,0l-0.2,0h-0.1l-0.1-0.1l-0.2-0.2l-0.1,0l-0.2-0.1l-0.1-0.2l-0.1-0.2
	l-0.1-0.1l-0.7-0.3l-0.2,0l-0.1,0l-0.1-0.1l-0.1-0.1l-0.2-0.1l-0.2-0.1l-0.2,0l-0.2,0l-0.1-0.1l-0.1-0.3l-0.2-0.1l0-0.1l0.1-0.1
	l0.1-0.1l-0.2,0l-0.1,0l-0.1-0.1l-0.5-0.6l-0.2-0.1h-0.5l-0.1,0l-0.1-0.1l-0.2-0.2l-0.2-0.1l-0.2-0.1l-0.1-0.1l0-0.2l0-0.2l0-0.1
	l-0.1-0.1l-0.1-0.1l-0.1-0.1l-0.2-0.1l-0.1-0.1l-0.2-0.3l-0.1-0.1l-1.2-0.7l-0.4-0.4l-0.1-0.2v-0.1l0-0.1l0.1-0.3l0-0.1l-0.1-0.2
	l-0.2-0.4l-0.2-0.2l-0.2-0.2l-0.1-0.1l0-0.1l-0.1,0l-0.1-0.1l-0.1-0.1l0,0l-0.1,0l0-0.1l0-0.1l0-0.1l-0.3-0.3l-0.1-0.1l0-0.1
	l-0.1-0.1l-0.1,0l0-0.1l0.1-0.3l-0.2-0.1l0-0.1l0.1-0.3l-0.1-0.1l0,0l-0.1,0l-0.1,0l-0.3-0.1l-0.1-0.1l0-0.1l0.2-0.2l0.1-0.2
	l-0.1-0.2l-0.2-0.3l-0.1,0l-0.1,0l-0.1,0l0-0.1v-0.1l0-0.1l0-0.1l-0.1,0l-0.1,0l-0.5-0.1l-0.2-0.1l-0.7-0.5l-0.2-0.2l-0.1-0.2
	l-0.1-0.1l-0.4-0.1l-0.1-0.1l-0.3-0.3l-0.2-0.1l-0.3-0.1l-0.1,0l-0.1,0l-0.1-0.1l-0.1-0.1l0-0.1l0.1-0.1l0-0.1l-0.1-0.2h0.1
	l-0.1-0.1l-0.1-0.1l-0.1-0.1l-0.1,0l-0.1,0l0-0.1l0-0.1l0-0.1l-0.1-0.1l-0.5-0.3l-0.5-0.2l-0.1-0.2l-0.1-0.2v-0.4l-0.1-0.1l0-0.1
	v-0.1l-0.1-0.4l0-0.1l-0.2,0l-0.5-0.1l-1.6,0.1h0l-6.7,0l-0.4,0.1l-0.2,0.1l-0.5,0.4l-0.1-0.1l-0.4-0.4l-0.2-0.1l-1-0.1l-0.3,0.1
	l-0.2,0.1l0,0l0,0.1l-0.1,0.3l0,0.2l0,0.1l-0.1,0.1l-0.1,0l-0.1,0l-0.1,0l-0.1,0.2l-0.2,0.6l-0.3,0.8l-0.1,0.1l-0.2,0.1l-0.1,0.1
	l-0.8,2.1l-0.3,0.4l-0.5,0.5l-0.2,0.3l-0.5,1.7l0,0.8l-0.1,0.2l-0.2,0.9l0,0.1l-0.2-0.1l0-0.5l-0.1-0.2l0.1-0.3l0-0.3l-0.1-0.3
	l-0.2-0.1l-0.1-0.1l-0.3-0.6l-0.1-0.1l-0.1,0l-0.1-0.1l0-0.2l0-0.1l0-0.2l0-0.1l0-0.1l0.1-0.1l0.1-0.1l0-0.2l-0.6-0.6l-0.2-0.2
	l-0.1-0.3l0-0.1l-0.2-0.1l-0.1-0.1l0-0.1l0.1-0.2l0-0.1l-0.1-0.1l-0.2-0.2l-0.1-0.2l0.1-0.3l0.1-0.2l0.1-0.2l0-0.2l-0.1-0.2
	l-0.1-0.1l-0.3-0.3l-0.1-0.1l-0.2,0l-0.2-0.1l-0.2-0.1l-0.2,0l-0.1,0l-0.1,0l-0.2,0.1l-0.1,0l-0.4-0.1l-0.7-0.4l-2-0.5l-4.6,0.1
	l-0.6-0.1l-0.7-0.1l-0.1,0l-0.1,0l0,0.1l-0.1,0l-1.5,0.2l-0.3-0.1l-0.3-0.2l-1.4-1.6l-0.2-0.1l-1-0.2l0-0.1l-0.1-0.5l-0.3-0.4
	l-0.5-0.2l-0.9-0.3l-0.2,0.1l-0.5,1.9l-0.1,1.1l0,0.2l-0.1,0.1l0,0l0,0l-0.1,0l-0.1,0.1l-0.1,0.1l-0.1,0.1l0,0.1l-0.3,0.2l-1.4,0.4
	l-1.2,0.3l0,0.1l0,0.1l0,0.1l-0.1,0l-0.2-0.1l-0.2,0l-0.1,0l-0.1,0l-0.1,0.1l-0.2,0.2l-0.1,0.2l-0.1,0.3l-0.1,0.8l-0.1,0.3l-0.1,0.2
	l0,0.1l0.1,0.3l0,0.1l-0.1,0.1l-1.2,0.4l-0.3,0.1l-0.2,0.2l-0.1,0.2l-0.1,0.1l-0.2,0l-0.2,0l-0.2,0l0.1,1.1l0,0.3l-0.1,0.2l-0.8,0.6
	l-0.3,0.4l-0.5,0.9l1.9,2L214,32l-0.2,0.6l-0.7,2.4l-0.7,2.4l-0.7,2.4l-0.7,2.5l-0.2,0.8l-0.2,0.3l-0.5,0.3l-0.4,0.2l-0.1,0
	l-0.2,0.1l-0.2,0.1l-0.1,0l-1.3,0.6l-1.3,0.6l-1.3,0.6l-1.3,0.6l-0.5,0.2l-0.5,0.2l-0.5,0.2l-0.5,0.2l-0.4,0.2l-0.2,0.1l-0.1,0.1
	l-0.1,0.3l-0.4,0.6l-0.1,0.1l-0.2,0l-0.2-0.1l-0.2,0l-0.2,0.1l-0.4,0.9l-0.1,0.4l-0.1,0.2l-0.1-0.1l-0.2-0.3l-0.1,0l-0.1,0.1l0,0.2
	l0,0.2l-0.1,0.4l-0.5,1.1l-0.1,0.3l0,0.2l0.2,0.6l0,0.1l0.1,0.1l0.3,0.1l0.1,0.1h0.2l0.1,0l0.1,0.1l0.1,0.2l0,0l0,0l0,0.1l0,0.1
	l0,0.1l0.1,0.1l0,0.1l0.1,0.1l0.1,0.1l0,0.1l0,0.1l0,0.4l0.2,0.4l0.3,0.3l0.2,0.3l0,0.2l-0.1,0.2l-0.2,0.1l-0.2,0l-0.2,0l-0.2,0
	l-0.2,0l-0.2,0.1l-0.2,0.3l-1,3l0,0.4l0,0.2l0.1,0.2l0.4,0.5l0.1,0.2l-0.1,0.2l0.1,0.2l0,0.3l0,0.3l0.2,0.3l0.2,0.2l0.1,0.3l0.1,0.3
	l0.1,1l0.7,3l0.1,0.6l-0.1,0.4l-1.3,1.1l-0.3,0.4l-0.1,0.4l-0.1,0.5l0,0.9l0.1,0.6l0.2,0.5l0.3,0.5l0.4,0.5l2,2.9l0.2,0.3l0,0.3
	l-0.1,0.2l-0.2,0.4l-0.1,0.2l0,0.1l0,0.3l0,0.1l-0.1,0l-0.3,0l-0.1,0l-0.5,0.2l-0.2,0.1l-0.5,0l-0.3,0.1l-0.2,0.2l-0.2,0.2l-0.1,0.3
	l-0.1,0.2l-0.1,0.2l-0.3,0l-0.4-0.2l-0.4-0.3l-0.4-0.2l-0.5,0l-0.4,0.1l-0.1,0.1l-0.2,0.2l-0.4,0.7l-0.1,0.3l0,0.2l0,0.5l0,0.2
	l-0.5,1.2l-0.1,0.2l-0.2,0.1l-0.4,0.2l-0.2,0.1l-0.1,0.1l0,0.2l0,0.2l0,0.2l0,0.3l-0.1,0.3l-0.3,0.6l-0.1,0.1l-0.2,0.2l-0.1,0.1
	l0,0.2l0.1,0.1l0.1,0.1l0,0.2l-0.1,0.1l-0.3,0.1l-0.1,0.1l-0.1,0.1l-0.5,2.3l-0.2,0.3l-0.3,0.2l-0.6,0.2l-0.2,0.1l-0.1,0.1l-0.1,0.2
	l0,0.1l0,0.1l0,0.1l-0.2,0.2l-0.4,0.9l-0.2,0.4l-0.2,0.5l-0.1,0.1l-0.2-0.1l-0.2-0.2l-0.2-0.1l-0.2,0.1l-0.1,0.6l-0.1,0.2l-0.5,0.6
	l-0.6,0.5l-0.5,0.5l-0.2,0.7l0,1.3l0,0.1l-0.1,0.1l-0.1,0l-0.1,0.1l-0.2,0.3l-0.2,0.4l-0.1,0.4l0,0.4l0.1,0.3l0.2,0.5l0,0.3l0,0.2
	l-0.3,0.6l0,0.1l0,0.1l0,0.1l-0.1,0.1l-0.1,0.2l-0.1,0.2l-0.1,0.2l0,0.2v0.2l0.1,0.2l0.1,0.6l0,0.3l-0.1,0.3l-0.2,0.3l-0.2,0.1
	l-0.5,0.1l-0.2,0.1l0,0.1l0,0.1l-0.1,0.1l-0.1,0.1l-0.3,0.2l-0.2,0.1l-0.1,0l-0.1,0l0,0.1l0,0.1l0.1,0.2l0,0.1l-0.1,0.1l-0.1,0.1
	l-0.1,0.1l-0.1,0l-0.2,0.1l-0.1,0.2l0,0.6l0,0.2l0.1,0.2l0.1,0.2l0.1,0.2l0.1,0.6l0.1,0.1l0.1,0.1l0,0.1l0.2,1.2l0,0.4l0,0.4l0,0.3
	l0.1,0.2l0.3,0.2l0.1,0.2l0.1,1.1l-0.1,1.6l-0.1,0.5l-0.1,0.4l-0.4,0.6l-0.1,0.2l0.1,0.2l0.2,0l0.4-0.1l0.4,0.1l0.3,0.3l0.1,0.4
	l-0.1,0.5l-0.1,0.1l-0.2,0.1l-0.1,0.1l0,0.1l0,0.1l0,0.2l0,0.5l0,0.2l-0.1,0.2l-0.3,0.3l-0.3,0.2l-0.3,0.2l-0.4,0.1l-0.4-0.1
	l-0.9-0.4l-0.3,0.1l0,0.2l0.3,0.5l0.1,0.3l-0.1,0.3l-0.1,0.1l-0.2,0.1l-0.2,0.1l-0.2,0.3l-0.2,0.9l-0.2,0.4l-0.2,0.4l-0.1,0.2l0,0.2
	l0,0.2l0,0.1v0.1l-0.1,0.1l-0.2,0.3l-0.1,0.1l-0.2,0.4l-0.2,1.7l0,0.2l0.1,0.2l0.2,0.2l0.3,0.3l0.1,0.2l0,0.2l-0.1,0l-0.4-0.1
	l-0.2,0.1l-0.2,0.4l-0.1,0.2l-0.1,0.4l-0.1,0.2l-0.2,0.1l-0.2,0l-0.1-0.1l-0.1-0.3l-0.1-0.3l-0.2-0.1l-0.1,0.1l-0.6,0.9l-0.1,0.2
	l0,0.3l0,0.5l0,0.2l-0.2,0.5l0,0.2l0.1,0.2l0.1,0.3l0,0.2l-0.2,0.4l0,0.2l0,0.5l0,0.5l-0.1,0.5l0,0.2l0.1,0.3l0.6,1.1l0.3,0.4
	l0.1,0.2l0,0.5l0,0.3l0.1,0.3l0.1,0.2l0.4,0.4l0.4,0.1l0.4,0l0.5,0.1l0.2,0.1l0.2,0.2l0.2,0.2l0.1,0.2l0,0.2l-0.1,0.2l-0.1,0.1
	l-0.1,0.2l-0.1,0.5l-0.1,0.1l-0.3,0l-0.5-0.2l-0.2,0l-0.1,0.1l0,0.1l0,0.1l0.2,0.2l0.1,0.1l0,0.1l0,0.2l0,0.1l0.2,0.1l0,0.1l0,0.1
	l-0.1,0.2l0,0.1l0,0.2l0.1,0.3l0,0.1l0,0.1l0,0.2v0.1l0.1,0.3l0.1,0.1l0.2,0l0.2,0.1l0.3,0.4l0,0.9l0.2,0.4l0.4,0.2l0.2,0.1l0.1,0.3
	l0,0.3l0,0.2l0,0.2l0.2,0.3l-0.1,0l-0.3,0l-0.1,0.1l0,0.1l0,0.2l0,0.3l0.3,1.4l0.2,0.4l0.6,0.7l0.4,0.3l0.2,0.1l0.2,0.1l0.2,0.1v0.2
	l-0.2,0.3l-0.1,0.2l-0.1,0.5l-0.1,0.2l-0.1,0.1l-0.3,0.1l-0.1,0.1l-0.1,0.3l0.1,0.2l0.1,0.2l0,0.3l-0.2,0.7l0,0.3l0.1,0.2l0.2,0.2
	l0.4,0.3l0.1,0.2l0.3,0.8l0.3-0.1l0.5-0.6l0.4-0.1l0.4,0.1l0.3,0.2l0.2,0.3l0.1,0.7l0.2,0.4l0,0.3l-0.1,0.2l-0.3,0.4l-0.1,0.2l0,0.2
	l0,0.6l0,0.1l-0.1,0.1l-0.2,0.1l-0.1,0.1l0,0.1l0,0.1l0,0.1l0,0.1l-0.2,0.7l0,0.2l0.1,0.2l0.3,0.4v0.2l-0.1,0.1l-0.4,0.3l-0.1,0.1
	l0,0.3l0.2,1l0,0.2l-0.1,0.5l0,0.4l0.1,0l0.2-0.1l0.2,0l0.1,0.3v0.6l-0.1,1l0,0.2l0,0.1l0,0.1l0,0.2l0.1,0.2l0.3,0.5l0.1,0.3l0,0.1
	l-0.7,0.3l0,0.1l0,0.1l-0.1,0.1l-0.4-0.1l-0.2,0l-0.2,0l-0.5,0.1l-0.2,0.2l-0.1,0.3l0,0.4l0,0.4l0,0.3l-0.1,0.2l-0.5,0.4l-0.1,0.3
	l-0.2,0.6l-0.2,0.3l-0.4,0.4l-0.2,0.2l-0.2,0.4l-0.1,1l-0.2,0.4l-0.2,0.1l-0.2,0l-0.1,0.1l0.1,0.2l0.2,0.2l0.1,0.1l0,0.2l-0.8,2
	l-0.2,0.9l0,0.9l-0.2,0.9l-1.7,0.5l-0.4,0.7l0.2,0.5l0.4,0.1l0.5,0.1l0.4,0.2l0.1,0.3l-0.1,0.1l-0.2,0.1l-0.1,0.1l0,0.2l0.3,0.9
	l0.2,0.2l0.2,0.2l0.1,0.2L178,184l0.1,0.5l0,0.3l-0.1,0.5l0,0.2l0.5,1.3l0.2,0.3l0,0.4l-0.7,0.7l0,0.5l0.1,0.1l0.2,0l0.1,0.1l0,0.1
	l-0.1,0.1l-0.1,0.1l-0.1,0.1l-0.1,0.2v0.2l0.3,0.8l0,0.2l-0.1,0.2l-0.2,0.2L178,191l-0.1,0.4l-0.1,0.3l-0.2,0.2l-0.2,0.1l-0.3,0
	l-0.5-0.3l-0.2,0l-0.1,0.1l-0.1,0.1l-0.1,0.3l0,0.1l0,0.2l0,0.1l0,0l-0.1,0.1l0,0l-0.4,0.5l-0.1,0.1l-0.2,0.1l-0.1,0l-0.1,0.1l0,0.1
	l0,0.1l0,0.1l0,0.1l-0.2,0.3l0,0.1l0,0.2l0.2,0.3l0.1,0.2v0.3l-0.1,0.1l-0.9,0.2l-0.1,0l-0.1-0.1l-0.1-0.1l-0.4-0.2l-0.2-0.1
	l-0.2,0.1l-0.1,0.2l-0.1,0.5l-0.1,0.2l-0.2,0.1l-0.2,0l-0.2,0l-0.2-0.1l-0.4,0.1l-0.2,0.5l-0.1,0.6l0,0.5l0.2,0.9l0,0.2L171,199
	l-0.2-0.1l-0.2-0.1l-0.2,0l-0.2,0.1l0,0.2l0,0.5l-0.1,0.3l-0.3,0.7l-0.1,0.1l-0.1,0.1l-0.1,0.1l0,0.1l0.1,0.1l0.1,0.1l0.1,0l0.1,0.1
	l0.1,0.1l0,0.1l0,0l0,0.1l0,0.1l-0.1,0.1l0,0.1l0.3,0.2l0,0.2l-0.1,0.2l-0.2,0.1l-0.2,0l-0.2-0.1l-0.1,0l0.2,0.2l0.3,0.2l0.1,0.1
	l0.1,0.6l0.1,0.2l0.4,0.3l-0.4,0.2l-0.2,0.2l-0.1,0.3l0,0.3l0,0.3l0,0.3l-0.1,0.3l-0.4,0.5l-0.1,0.2l0,0.3l0.1,0.4l0.3,0.6l0.3,0.4
	l0.1,0.2l0.1,0.3l0,0.3l-0.2,0.5l-0.1,0.3l0,0.1l0.1,0.2l0,0.2l-0.1,0.1l-0.3,0.2l-0.2,0.2l-0.1,0.1l-0.1,0.2l0,0.3l0.1,0.6l0.5,1.8
	l0.4,0.8l0.1,0.6l0.3,0.5l0.1,0.3l0.1,0.3l0.1,0.2l0.3,0.4l0,0.1l0,0.1l0,0.1l0,0.1l-0.1,0.2l0,0.3l0.1,0.5l0,0v0.1l-0.1,0.5l0,0.4
	l0,0.4l0.5,2.2l0.2,0.5l0.4,0.3l0.4,0.3l0.3,0.3l0.1,0.5l0,0.3l-0.1,0.2l-0.3,0.4L173,225l0,0.1l0,0.1l0,0.1l0.1,0.1l0,0.1l0,0.1
	l-0.1,0l-0.3,0.2l-0.1,0.1l-0.1,0.3l-0.2,0.2l-0.2,0.1l-0.5-0.1h-0.4l-0.3,0.1l-0.6,0.5l-0.2,0.1l-0.8,0.1l-0.1,0l-0.1,0.1l-0.1,0.2
	l-0.3,0.2l-1,0.5l-0.3,0.3l-0.2,0.3l-0.2,0.9l0,0.4l0.2,1l0.1,1.9l-0.1,1.1l-0.1,0.3l-0.2,0.2l-0.2,0.2l-0.2,0.2l0,0.3l0.2,0.4
	l-0.1,0.2l-0.1,0.2l-0.2,0.4l-0.1,0.2l-0.3,0.4l0.5,0.5l-0.1,0.5l-0.2,0.2l-0.2,0l-0.2,0l-0.2,0l-0.3,0.1l-0.2,0l-0.2-0.1l-0.5-0.5
	h-0.1l-0.2,0.2l-0.1,0.2l0,0.3l0,0.3l0.2,0.4l-0.1,0.2l-0.1,0.2l-0.1,0.2l0,0.3l0.2,0.6l0.1,0.3l0,0.3l0.1,0.2l0.1,0.2l0.4,0.3
	l0.1,0.2l0,0.2l-0.1,0.3l-0.4,0.9l-0.1,0.1l-0.1,0.1l-0.1,0.1l0,0.1l0,0.2l0.1,0.3l0,0.1l-0.1,0.5l-0.4-0.1l-0.5-0.2l-0.4,0
	l-0.1,0.2l0,0.1l0.1,0.1l0,0.1l0,0.1l0,0.1l-0.1,0.4v0.1l0.1,0.1l0,0.1l-0.1,0.2l0,0.1l0.1,0.2l0.1,0.2l0.3,0.3l0.2,0.3l0.1,0.1
	l0.1,0l0,0l0-0.1l0.1-0.1l0.1-0.1l0.1,0l0.1,0.1l0.1,0.1l0,0.1l0,0.1v0.1l-0.1,0.2l-0.4,1l-0.1,0.1l-0.1,0l-0.4-0.1l-0.1,0l-0.1,0.2
	l-0.4,1.2l-0.2,0.4l0,0.1l0,0.1l0.1,0.1l0,0.1l-0.1,0.5l-0.2,0.4l-0.8,0.9l-0.1,0.2l0.4,1.5l0.1,0.3l0.4,0.6l0.1,0.2l0.1,0.3v0.3
	l-0.2,0.6l0,0.3l0.1,0.5l0,0.3l-0.1,0.5l0,0.5l-0.1,0.2l-0.1,0.1l-0.1,0.1l0,0.3l0.1,0.5l0,0.2l-0.1,0.3l-0.3,0.9l0,0.4l0.1,0.5
	l0.1,0.2l0,0.2l0,0.2l0,0.3l-0.1,0.4l0,0.2l0.1,0.2l0.1,0.2l0.1,0.2l0,0.2l-0.1,0.2l-0.2,0.1l-0.4,0.2l-0.1,0.2v0.4l0.6,0.9l0.1,0.5
	l0,0.5l0.2,0.4l0.3,0.3l0.2,0.4l0.2,1l0,0.2l0,0.2l0,0.2l0.2,0.3l0.2,0.2l0,0.1l0,0.7l-0.1,0.3l-0.3,0.2l-0.3,0.1l-0.7,0.1l-0.1,0.1
	l-0.1,0.1l-0.1,0.1l-0.1,0.1l-0.1,0.1l-0.3-0.1l-0.1-0.3l-0.2-0.3l-0.3,0l-0.3,0.3l-0.1,0.4l-0.1,0.4l-0.2,0.3l-0.3,0.3l-0.2,0.3
	l-0.1,0.3l0.1,0.4l0.5,0.5l0.1,0.3l-0.2,0.8l0,0.1l0.3,0.5l0.1,0.2l0,0.1l-0.5,0.3l-0.3,0.3l-0.2,0.4l-0.1,0.5l0,0.1l0.1,0.2l0,0.1
	l0,0.1l-0.1,0.3l0,0.2l0.1,0.5l0,0.2l0.1,2.1l-0.1,0.5l-0.2,0.9l-0.1,0.5l0.2,0.6l0.4,0.5l0.4,0.4l0.5,0.2l1.6,0.2l1,0.4l0.2,0.2
	l0.1,0.3l0,0.1l-0.1,0.3l0,0.1l0,0.1l0.1,0.2l0,0.1l0,0.3l0,0.3l-0.1,0.2l-0.5-0.1l-0.2,0l-0.4,0.2l-0.3,0l-0.1,0l-0.1,0.1l0,0.4
	l0,0.1l-0.1,0.1l-0.1,0.1l-0.1,0.1l-0.1,0.1v0.1l0,0.4l-0.1,0.1l-0.1,0.1l0,0.1l0.1,0.1l0.1,0l0.1,0l0.1,0l0.1,0l0.2,0.1l0.2,0.1
	l0.1,0.2v0.3l-0.2,0.3l0,0.1l0.1,0.2l0.2,0.1l0.3,0l0.2,0l0.1,0.1l0.1,0.1l0,0.1l0.1,0.1l0.1,0.1l0.5,0.3l0.1,0.1l0,0.2l0.1,0.8
	l-0.1,0.2l-0.2,0.2l-0.2,0.1l-0.4,0.2l-0.2,0.1l-0.1,0.2l-0.1,0.3l0,0.2l0.2,0.1l0.2-0.1l0.1-0.1l0.1,0l0,0.3l0,0.1l-0.1,0.1l0,0.1
	l0,0.2l0.1,0.1l0.2,0.1l0.1,0.1l0.1,0.2l0.6,1l0,0.2l-0.1,0.3l-1,1.5l-0.4,0.3l-0.4,0.1l-0.2,0.2l0.2,0.6l0.3,0.6l0.1,0.3l0,0.3
	l-0.2,0.4l0,0.3l0.1,0.2l0.1,0.2l0.1,0.2l-0.1,0.3l-0.2,0.1l-0.2,0.1l-0.2,0.2l0,0.3l0.4,0.4l0.4,0l0.5-0.1h0.5l0.5,0.1l2.2,0
	l1.6,0.3l0.6,0l0.3,0.1l0.3,0.2l0.2,0.2l0.1,0.2l0,0.2l0.1,0.2l0.1,0.2l0.1,0.1l0.1,0.1v0.3l-0.1,0.3l-0.2,0.2l-0.2,0l-0.2,0
	l-0.1,0.1l-0.1,0.2l-0.2,0.5l-0.1,0.3l0,0.2l0.1,0.5l-0.1,0.6L169,312l-0.4,0.3l-0.4,0.1l-0.5-0.1l-0.8-0.6l-0.4-0.1l-0.5,0.1
	l-1,0.4l-0.4,0l-0.7-0.3l-0.2-0.1l-0.3,0l-0.1,0.1l-0.1,0.2l-0.2,0.1l-0.2,0l-1.4-0.3l-0.2-0.1l-0.4-0.2l-0.3,0.1l-0.1,0.3l0.2,0.8
	l0,0.2l-0.1,0.5l0.1,0.2l0.2,0.1l0.5,0l0.4,0.2l0.4,0.3l0.4,0.2l0.4-0.1l0.2-0.1l0.2-0.1l0.2,0l0.2,0.1l0.2,0.1l0.3,0.4l0.2,0.1
	l0.4,0.1l0.4-0.1l0.4,0l0.4,0.4l0.4,0.9l0.2,0.7l0.1,0.2l0.4,0.5l0.6,0.4l0.3,0.3l0.3,0.4l0.2,0.5l0.1,0.5l-0.2,0.3l-0.2,0.2
	l-0.3,0.4l-0.2,0.2l-0.2,0.1l-1.1,0.4l0,0.2l0.1,0.3l0.2,0.4l0,0.2l-0.1,0.2l-0.4,0.3l-0.4,0.1l-0.8-0.1l-0.3,0.1l-0.4,0.1l-0.4,0.2
	l-0.2,0.3l0,0.1l0.2,0.2l0,0.1l0,0.1l-0.1,0.1l-0.1,0.1l-0.1,0.1l-0.2,0.4l0,0.2l0,0.3l0,0.1l0,0.1l0,0.1l0,0.1l-0.2,0.3l0,0.1
	l0,0.2l0.1,0.2l0.3,0.3l0.1,0.3l0,0.2l-0.1,0.2l-0.1,0.2l0.1,0.3l0.2,0.1l0.5,0.2l0.4,0.2l0.3,0.3l0.2,0.4l0.1,0.6l-1.2,1.3
	l-0.1,0.2l-0.2,0.4l-0.1,0.2l-0.2,0.1l-0.3,0.1l-0.8,0.1l-0.1,0l-0.1,0.1l0,0.2l0.1,0.1l0.1,0l0.1,0.1l0.5,0.5l0.6,0.4l0.2,0.3
	l0,0.4l0,0.7l0,0.6l0.1,0.5l0.7,1.9l0,0.3l-0.1,0.2l-0.1,0.2l0,0.3l0.2,1.1l-0.1,0.5l-0.3,0.4l-0.6,0.3l-0.2,0.2l-0.3,0.4l-0.2,0.1
	l-0.2,0.1l-0.6,0l-0.3,0.1l-0.2,0.2l0,0.1l0.1,0.1l0.1,0.1l0.1,0.1l0,0.1l-0.1,0.1l-0.1,0.1l0,0.1l-0.2,0.9l0,0.2l0.1,0.2l0.4,0.3
	l0.1,0.2l-0.2,0.2l-0.7,0.4l-0.1,0.3l0.2,0.3l0.7,0.4l0.3,0.2l0.2,0.3l0.1,0.4l0,0.4l-0.2,0.4l-0.3,0.2l-0.4-0.1l-0.7-0.5l-0.2,0
	l-0.1,0.1l0,0.2l0,0.3l0.1,0.3l0.1,0.2l0,0.2l-0.1,0.3l-0.2,0.4l-0.9,1.1l-0.3,0.4l-0.2,0.2l-0.2,0l-0.6-0.1l-0.3,0l-0.4,0.2
	l-0.2,0.2l-0.2,0.2l-0.1,0.4l0.1,0.1l0.2,0.1l0.2,0.2l0,0.2l-0.2,0.8l0,0.3l0,0.3l-0.1,0.3l-0.1,0.3l-1,1.8l-0.2,0.5l-0.3,1.1
	l-0.3,0.5l-0.2,0.5l0.1,0.5l0.3,0.4l0.3,0.3l0.2,0.1l0.2,0l0.2,0.1l0.2,0.2l0,0.1l0,0.1l0,0.1l0.1,0.1l0.1,0.1l0.4,0.1l0.1,0.3
	l0.3,1.9l0,0.3l-0.1,0.6l0,0.3l0.1,0.2l0.1,0.3l0.1,0.3L158,367l-0.1,0l-0.3-0.1l-0.1,0l-0.1,0.1l-0.1,0.1l-0.1,0.2l-0.3,0.4
	l-0.2,0.1l-0.7,0.2l-0.4,0.3l-0.4,0.3l-0.4,0.9l0.1,0.8l0.2,0.9l0.1,1.7l0,0.6l-0.1,0.5l-0.3,0.5l-0.6,0.7l-0.8,0.8l-0.4,0.3
	l-0.5,0.2l-1,0.1l-0.5,0.2l-0.4,0.4l-0.1,0.1l-0.7,1l-0.1,0.4l0,0.2v0.2l0,0.2l-0.1,0.2l-0.7,0.9l-0.1,0.4l0,0.4l0.2,0.3l0.7,0.1
	l0,0.1l-0.3,0.1l-0.1,0.1l0,0.3l-3.3,0.1l-0.1,0.2l0,0.4l0.1,0.5l-0.1,0.2l-0.2,0.2l-0.4,0.3l-0.2,0.2l-0.1,0.3l0,0.3l0.1,0.2l0,0.2
	l-0.1,0.3l-0.3,0.4l0,0.2l0.1,0.3l0.1,0.2l0.3,0.4l0.1,0.2l0,0.3l-0.1,0.3l-0.1,0.2l-0.1,0.3l0.1,0.3l0.2,0.2l0.3,0.4l0.3,0.5l0,0.4
	l-0.2,0.4l-0.6,0.6l-0.1,0.2l0,0.3l0,0.3l-0.1,0.2l-0.2,0.2l0,0.2l0.2,0.2l0.6,0.5l0.1,0.2l0.1,0.3l0,0.2l-0.5,1l-0.1,0.5l0.1,0.4
	l1.3,1.3l0.4,0.2l0.2,0.2l0.3,0.4l0.2,0.5l0.2,0.6l0.1,0.5l0,0.3l0,0.7l0,0.3l0.1,0.9v1l0,0.3l0.1,0.3l0.5,0.6l0.1,0.3l0.1,0.6
	l0,0.6l0.1,0.5l0.4,0.3l0.5,0l0.5-0.2l0.4-0.4l0.8-0.9l0.4-0.3l1.3-0.8l0.2-0.1l0.2,0.1l0.5,0.6l0.2,0.1l0.5,0l0.7-0.9l0.5-0.2
	l1.3,0.3l0.4,0.3l0.2,0.1l0.2,0.1l0,0.3l-0.4,0.8l-0.1,0.2v0.2l0.1,0.3l0.3,0.5l0.3,0.4l0.2,0.4l0.1,0.7l-0.1,1.4l-0.1,0.8l-0.2,0.4
	l-0.3,0.1l-0.2,0.1l-0.1,0.2l-0.2,0.3l-0.3,0.4l-0.1,0.2l0,0.3l0.2,0.6l0.3,0.4l0.8,0.6l0.2,0.2l0,0.2l-0.1,0.2l-0.5,0.6l-0.1,0.2
	l0,0.4l0,1l-0.1,0.3l-0.1,0.1l-0.1,0.1l-0.1,0.1l0,0.2l0,0.2l0,0.2l0,0.2l0,0.1l-0.8,0.8l-0.3,0.5l0.2,0.4l0.3,0.1h0.3l0.3,0.1
	l0.2,0.3l0.1,0.3l0.1,0.9l0.1,0.3l0.2,0.2l1,0.3l0.5,0.3l0.7,0.7l0.7,0.8l0.3,0.3l0.3,0.4l0.1,0.5l-0.1,0.5l-0.1,0.7l0.5,0.3l0.9,0
	l2.4,0l2.4,0l2.4,0l2.4,0l2.4,0l2.4,0l2.4,0l2.4,0l0.9,0l1.3,0.5l1.8,0.8l1.9,0.8l2.9,0.1l2.2,0.7l1.6,0.9l0.4,0.2l2.1,0.4l0.2,0.1
	l0.3,0.2l0.2,0.1l0.8,0.2l0.3,0.1l0.1,0.2l0,1.3l0.1-0.1l0.2-0.2l0.2-0.2l0.1-0.3l0-0.3l-0.1-0.3l-0.1-0.3l-1.3-2.1l-1.5-2l-1.2-2.3
	l-0.9-2l-0.1-0.6l-1.2-2.2l-0.1-0.2l-0.2-0.1l-0.2,0l-0.5,0.2l-0.3,0.3l-0.9,0.6l-0.2,0.1h-0.2v-0.1l0.5-0.5l0-0.2l-0.4-0.3
	l-1.3-0.5l-0.8-0.1l-2.3,0.5l0.2-0.1l0.5-0.2l0.5-0.4l0.3-0.1l0.6-0.1l0.3-0.2l0.1,0l0.2,0l0.8,0.1l1.2,0.7l0.3,0.1l0.3,0l0.2-0.1
	l0.3-0.5l0.2-0.2h0.3l0.2,0.1l0.2,0l0.2-0.2l0.1-0.3l0-0.4l-0.1-0.4l-1-3l-0.2-0.7l-0.1-0.7L192,414l-0.3-0.6l-0.1-0.7l-0.1-1.4
	l-0.1-0.7l-0.1-0.3l-0.1-0.3l-0.2-0.2l-0.2,0.1l-0.2,0.2l-0.7,0.3l-0.3,0.3l-0.6,0.7l-0.3,0.3l0.2-0.6l0.4-0.5l0.9-0.7l0.6-0.9
	l0.4-0.3l0.2-0.3l0.1-0.4l0-0.3l-0.1-1.2l0-0.3l0-0.3l0.1-0.4l0.2-0.7l0.4-2.1l0.2-0.6l0.5-0.8l0.3-0.3l0.3-0.9l0.6-0.6l0.2-0.5
	l0.2-0.2l2.4-1.3l2.1-0.7l0.2-0.1l0.2-0.2l0.2-0.3l0.1-0.3l-0.1-0.2l-0.2-0.2l-1-0.6l-0.2-0.2l-0.1-0.2l0-0.3l-0.1-0.3l-0.1-0.3
	l-0.2-0.2l-0.2-0.1l-0.2,0l-0.3,0.1l-1.8,0l-0.2-0.1l-0.1,0l-0.1,0l-0.3,0.2l-0.4,0.1l-0.6,0.2l-0.2,0l-0.1,0l-0.1,0l-0.1,0v-0.1
	l0.4-0.3l1-0.3l1.4-0.1l0.5,0.2l0.3-0.1l0.3-0.2l0.3-0.1l0.4-0.3l0-0.6l-0.2-0.7l-0.4-0.7l-0.1-0.6l-0.1-0.3l-0.1-0.2l-0.7-0.5
	l0.2,0l0.3,0.1l0.2,0.2l0.2,0.2l0.1,0.3l0.3,1l0.1,0.3l0.5,0.7l0.2,0.3l0.2,0.7l0.1,0.3l0.2,0.2l0.2,0.3l0.2,0.3l0.2,0.6l0.2,0.2
	l0.4,0.3l0.3,0.4l0.1,0.1l0.1,0l1.4-0.2l2.2-1.2l1.5-1.5l0.4-0.5l0.2-0.2l0.1-0.1l0.1-0.2l0.2-0.3l0.1-0.4l0.5-3.4v-0.7l0-0.2
	l0.1-0.4l0.1-0.5l0.3-0.9l0.1-0.7l0-0.7l0-0.3l0.5-1.5l0-0.3l-0.2-0.2l-0.2-0.1l-0.1,0.1l-0.2,0.4l-0.4,1.3l-0.1,0.3l-0.2,0.1
	l-0.6,0.2l-0.2,0l-0.2-0.1l0-0.1l0.2-0.3l0.1-0.2l0.1-0.4l0.1-0.2l0.2-0.1l0.4,0.1l0.2,0l0.1-0.2l-0.1-0.2l-0.1-0.2l-0.1-0.2
	l0.7-0.8l0.1-0.1l0-0.2l0.1-0.1l0.2-0.1l0.1-0.1l0.1-0.1l0-0.2l0-0.3l-0.1-0.2l-0.1-0.3l0.1-0.3l0.1-0.1l0.1-0.3l0.1-0.1l2.3-2.9
	l0.4-0.3l1.1-0.6l0.1-0.1l0.1-0.1l0-0.1l0-0.2l0-0.2l0.2-0.2l0.9-1.6l0.4-0.4l1.8-0.9l0.3-0.2l0.3,0l0.1,0l0.2-0.2l0.2-0.3l0.2-0.2
	l0.4-0.3l0.7-1l0.2-0.2l0.2-0.1l0.5-0.2l0.3-0.1l0.2-0.1l0.9-0.2l0.1-0.1l0-0.1l0.1-0.3l0-0.1l0-0.1l0.1-0.1l0.3-0.1l0.9,0.1
	l-0.1-0.4l-0.1-0.3l0.1-0.3l0.2-0.4l0.2-0.2l1.3-1l0.2-0.1l0.2-0.1l0.1-0.3l0.1-0.3l0.1-0.3l0.2-0.2l0.2-0.1l1.1-0.2l0.1,0l0.2,0.1
	l0.1,0l0.2-0.1l0-0.3l-0.2-0.2l-0.2-0.1l-0.1-0.1l0-0.2l0-0.2l0.1-0.1l0-0.1l-0.1-0.2l-0.2-0.3l-0.1-0.1l-0.1-0.2l0-0.2l0.6-0.2
	l0.2,0l0.6,0.3l0.3,0.1l0.3-0.2l-0.1,0l-0.1-0.1l-0.1,0l0.1-0.2l0.1-0.1l-0.2-0.1l-0.6-0.3l-0.1-0.1l-0.2-1l-0.3-0.6l-0.4-0.2
	l-0.4,0l-1.6,0.8l-0.6,0l-0.3,0.1l-0.8,0.5l-0.4,0l-0.5-0.2l0.2,0l0.8,0l0.2-0.1l0.7-0.5l0.9-0.1l0.2-0.2l0.2-0.2l0.4-0.4l0.2-0.1
	l0.6-0.1l0.5,0.1l0.4-0.1l0.3-0.6l0.5-1.5l0.3-0.9l0.1-0.6l0.2-2.3l0.1-0.9l0-0.2l-0.3-0.6l-0.1-1.1l-0.1-0.3l-0.2-0.3l-0.1-0.1
	l-0.2-0.1l-0.1-0.1l-0.4-0.6l-0.2-0.2l-0.5-0.2l-0.4-0.4l-0.3,0l-0.3,0.1l-0.6,0.2l-2.7,0l-0.1-0.1l-0.1-0.1l-0.1-0.1l-0.2-0.1
	l-0.6,0.1l-0.2,0l-0.3-0.2l-0.2-0.1l-0.2,0l-0.2,0.1l-0.2,0l-0.2-0.1l-0.5,0.2l-0.6-0.1l-1-0.6l-0.4-0.4l-0.6-1l-0.9-1.1l-0.1-0.1
	l-0.1-0.1l-0.1-0.2l-0.1-0.1l-0.1,0l-0.1,0l-0.1-0.1l-0.1-0.1l-0.6-0.9l-0.1-0.2l-0.1-0.2l-0.3-0.2l-0.5-0.2l-0.1-0.1l-0.2-0.3
	l-0.3-0.3l-0.1-0.1l-0.2-0.2l-0.5-0.2l-0.2-0.2l-0.4-0.5l-1.3-2.1l-0.2-0.6l-0.4-1.2l-0.5-2.4l0-0.5l0-0.5l0.1-0.4l0.4-1.2l0.2-0.3
	l0.3-0.2l0-0.4l0.3-0.5l1.3-1.5l0.1-0.1l0.2-0.1l0.1-0.2l0-0.1l-0.1-0.1l0-0.1l0-0.1l0-0.1l0-0.2l0.1-0.1l0.1-0.1l0-0.1V326
	l-0.1-0.5l0-0.3l0.1-0.3l0.1-0.3l0.1-0.2l0.1-0.2l0.5-0.5l0.4-0.2l0.2-0.3l0.6-1.2l0.3-0.4l0.1-0.1l0-0.2l0.1-0.1l0.3-0.3l0.5-1.1
	l0.4-0.5l0.5-0.4l0.7-0.4l0.2-0.2l1.9-0.1l1.2,0.1l0.2,0l0.2-0.3l-0.2-0.3l-0.3-0.2l-0.2-0.2l0.2-0.1l1.2,0.1l-0.2-0.2l-0.6-0.2
	l-0.1-0.2l0.1-0.3l0.2-0.2l0.5-0.1l0.7-0.4l0.3,0l0.1-0.1l0.1-0.1l0.1-0.1l0.2,0.2l0.2,0l0.2-0.1l0.1-0.1l0.1-0.2l0.4-0.6l0.1-0.1
	l0.9-0.1l1.1,0.2l0.2,0.1l0.3,0.5l0.2,0.2l0.1,0l0.5,0l0.1,0l0-0.1l0.1-0.1l0,0l0-0.1l0.1-0.1l0.1-0.1l0.1,0l0.1,0l0.1,0.1l0,0.1
	l0.1,0.1l0.2,0l0.4-0.1l0.2,0.1l0.6,0.4l0-0.2l0.1,0l0.4,0.1l0.2-0.1l0.1-0.2l0-0.2l-0.1-0.2l0.2-0.1l0.1-0.1l0-0.1l-0.2-0.1v-0.1
	l0.1-0.1l0.1-0.2l0.1-0.1l0.3-0.2l0.2-0.1l0-0.1l-0.2-0.2l-0.3-0.2l-0.5-0.2l-0.5-0.1l-0.3-0.1l-0.2-0.2l-0.1-0.3l0-0.3l0.3-1l0-0.3
	l0-0.1l0.1-0.1l0.1-0.1l0.4-0.8l0.1-0.1l0.7-0.5l0.1,0l0.1,0l0.2-0.1l0.3-0.1l0.1-0.1l0.2-0.2l0-0.1l0-0.1l0-0.1l0.1,0l0.1,0
	l0.2,0.1l0.1,0l0.3,0l0.3-0.1l-0.1-0.1l-0.1-0.1l-0.1,0l-0.1,0l0.2-0.4l0.1-0.1l0-0.1l0-0.1l0.1,0l0.1,0l0.1,0.1l0.1,0.1l0.1,0
	l0.1,0l0.2-0.1l0.1,0l0.1,0l-0.1-0.1l-0.4-0.3l-0.1-0.1l-0.1-0.1l0-0.2l0-0.1l0-0.1l0-0.2l0.8-0.6l0.1-0.2l0.1-0.3v-0.2l-0.2-0.1
	l-0.2-0.4l0-0.1l0-0.1l0-0.2l0-0.1l0.1-0.2l0-0.1l0-0.1l-0.4-0.3l-0.2-0.3l0.1-0.5l0-0.4l0-0.1l0.7-0.3l0.1-0.1l0-0.1l0-0.1
	l-0.1-0.1l0-0.1l0-0.3l0.2-0.4l0.1-0.3l-0.2-0.1l0-0.3l0.2-0.6l-0.1,0.1l-0.2,0.1l-0.2,0.1l-0.1,0l0-0.2l0.1-0.6l-0.1-0.2l-0.1-0.2
	l-0.1-0.3l-0.1-0.3l-0.1-0.1l-0.1-0.1l0-0.3l0.1-0.3l0.1-0.2l-0.2-0.5l-0.1-0.2l0-0.8l0-0.1l0.1-0.2l0-0.1l0.4-0.7l0.1-0.1l0.6-0.5
	l0.2-0.2l0.4-0.8l0.9-0.9l0.2-0.1l0.2-0.2l0.1-0.3l0-0.3l-0.1-0.3l0-0.3l0.1-0.3l0.2-0.1l0.2-0.2l0.2-0.2l0.3-0.4l1.9-1.3l2.1-0.6
	l1.2-0.5l1.3-0.9l0.2-0.2l0.1-0.2l-0.1-0.4l0-0.1l-0.1,0l-0.9,0.4h-0.3l-0.2-0.1l-0.1-0.1l-0.2-0.1l-0.2-0.2l-0.1,0l-0.1,0l-0.3,0
	l-0.3,0.1l-0.2,0l-0.1,0l-0.2-0.1l-0.3-0.1l-0.2-0.1l-0.4-0.4l-0.4-0.2l-1.3-0.6l-0.7-0.2l-0.3-0.3l-0.4-0.1l-0.2-0.2l-0.1-0.3
	l0.1-0.2l0.3-0.4l0.1-0.3l0.1-0.3l0.1-0.2l0.2-0.2l0.5-0.1l0.5-0.1l0.2-0.1l0.2-0.2l0.5-0.7l0.1-0.1l0.1-0.1l0.4-0.1l0.3-0.2
	l0.2-0.1l0.3-0.1l0.8-0.1l1.1,0l0.5,0.1l0.4,0.2l0.2,0.2l0.1,0.2l0.1,0.3l0.1,0.2l0.4,0.2l0,0l0,0.1l0,0.1l0.2,0.1l0.1,0l0.2,0.2
	l0.1,0.1l-0.1,0.1l-0.1,0.1l-0.2,0.9l-0.1,0.2l-0.1,0.3l0,0.3l0.2,0.1l0.2,0.1l0.2,0.2l0.3,0.6l0.3,0.3l0.3,0.2l0.4,0.1l0.5-0.4
	l0.2,0h0.7l2.2-0.5l0.7-0.3l0.5-0.7l-0.1-0.5l0.2-0.6l0.3-0.6l0.1-0.6l-0.1-2.4l0-1.2l-0.1-0.6l-0.2-0.5l-0.3-0.3l-0.2-0.2l-0.1-0.2
	l0-0.3l-0.3-0.9l-0.2-0.4l-0.3-0.2l-0.4,0l-0.5,0.1l-0.4,0.2l-1.1,0.8l-1.8,0.7l-1.5,0.2l-0.3,0.2l0.5,0.3l0.6,0.1l1.2-0.1l0.5,0.1
	l0.2,0.1l0.1,0.2l0,0.1l0.1,0.3l0,0.2l0,0.1l-0.1,0l-0.1,0l0,0l0,0.1l0.1,0.1l0,0.1l0,0.3l0,0.1l-0.1,0.1l-0.3,0.3l-0.1,0l-0.1,0.2
	l-0.3,0.1l-2-0.1l-0.2,0.1l-0.2,0.1l-0.2,0.1l-0.4,0.1l-0.4,0l-0.4-0.2l-0.9,0.1l-0.3-0.1l-0.1-0.1l0.1-0.4l0.1-0.1l0.8-1.2l0.2-0.2
	l0.3-0.1l0-0.1l-0.1-0.2l-0.1-0.1l-0.1,0l-0.3,0l-0.2,0.1l-0.3,0.1l-0.2,0l-0.2-0.2l-0.2-0.2l-0.2-0.1h-0.5l-0.2,0l-0.3-0.1
	l-0.3-0.1l-0.2-0.1l-0.1-0.1l-0.1,0l-0.2,0l-0.1,0l-0.8-0.6l-0.4-0.4l-0.3-0.5l-0.7-1.5l-0.1-0.5l0.2-0.6l0.5-1l0.2-0.6l0-0.5
	l-0.3-0.8l-0.1-0.5l0.1-0.4l0.1-0.3l0.1-0.4l0.1-0.5l0-0.4l-0.2-0.4l-0.6-0.6l-0.1-0.4l-0.1-0.4l-0.3-0.8l0-0.4l-0.4-1.7l-0.3-2.4
	l0-0.6l0-0.3l0.1-0.3l0.1-0.3l0.1-0.3l0-0.1l0-0.3l0-0.1l0.1-0.1l0.9-0.7l0.1-0.2l0.2-0.1l1.1,0l-0.1-0.1l-0.1-0.1l0-0.1l0.1-0.2
	l-0.2-0.1l-0.3,0.1l-0.2,0l0.1-0.1l0.4-0.2l0.6-0.1l1,0.2l0.3,0.2l-0.3,0.3l0.2,0.1l0.3,0.1l0.1,0.3l-0.1,0.1l-0.2,0l-0.6,0l0,0
	l-0.1,0l-0.1,0l-0.1,0l0-0.2l-0.2,0l-0.3,0.1l-0.2,0.1l0,0.2l0.3,0.1l0.3,0l0.7-0.1l0.5,0l1,0.2l1,0.5l1.4,0.4l2.6,1.4l0.4,0.1
	l0.2-0.1l0.3-0.1l0.2-0.1l0.1,0.1l-0.1,0.2l0,0.1l0,0.1l0.1,0.1l0.4,0l0.5,0.2l1.1,1l0.4,0.2l0.5,0.1l1.7,0l1.5-0.1l1,0.1l0.3,0
	l0.5-0.1l2.3,0.1l0.5-0.1l1.3-0.7l0.8-0.2l0.2-0.2l0.3-0.2l0.1-0.2l0.1,0l0.3,0l0.3,0l0.2,0l0.2-0.1l0.2-0.2l0.2-0.1l0.7-0.3
	l1.3-0.8l1.6-0.8l0.3-0.4l0.3-0.8l0.3-0.6l0-0.2l0-0.2l0.1-0.4l0-0.2l0.1-0.2l0.4-0.3l0.1-0.2l-0.3,0l-0.3,0.1l-0.8,0.5l-0.1-0.1
	l-0.1-0.2l0,0l0.1-0.1l0-0.1l-0.1-0.1l-0.1-0.1l0-0.1l0-0.1l0-0.1l0.1,0.1l0.2,0.3l0.1,0.1l0.5,0.1l0.2-0.2v-0.4l-0.1-0.6l-0.2,0.2
	l-0.1-0.1l-0.1-0.2l-0.1-0.1l0-0.1l0-0.3l0-0.1l-0.1,0l-0.4-0.2l-0.3-0.1l-0.1-0.1l-0.2-0.3l0-0.1l-0.1-0.1l-0.2-0.8l-0.3-0.6l0-0.2
	l0.1-0.3l0.2-0.3l0.2-0.2l0.2-0.2l0.2-0.1l0.3-0.1l0.2-0.1l0.1-0.3l0-0.2l0.2-0.6l0-0.3l-0.3-0.8l0-0.1l0.1-0.1l0.2-0.6l0.1-0.5
	l0.1-0.5l0-0.2l0-0.3l0-0.2l0.1-0.1l0.3-0.1l-0.2-0.3l0-0.1l0-0.1l0.5,0.4l0.2,0.1l0.8,0.1l0-0.1l0.4-0.2l0.1,0l0.1-0.2l0-1.2
	l0.3-1.9l0-0.2l0.1-0.2l0-1l0.1-0.1l0.1-0.1l0-0.1l0-0.2l0-0.1l-0.1-0.1l-0.3,0l-0.5-0.1l-0.2-0.1l-0.4-0.4L265,235l-0.1-0.3l0-0.1
	l-0.1,0l-0.1,0l-0.1,0l-0.1-0.1l-0.1-0.1l0-0.1l0-0.1l0.6,0l0.2,0h0.1l0,0l0,0l0.1,0l0.1,0.1l0.1,0.1l0,0.1l0.2,0.3l0.6,0.5l0.2,0.1
	l0.1,0.1l0.1,0.1l0.1,0l0.1-0.1l0.1-0.1l0.1-0.1l0-0.2l0-0.2l-0.2-0.4l-0.4-0.3l-0.8-0.4l-0.3-0.1l-0.8,0l-0.3-0.1l-0.2-0.1
	l-0.1-0.1l0.2-0.2l0.3,0.1l0.1,0h0.2l-0.2-0.2l-0.5-0.4l-0.2-0.2l-0.1-0.3l0-0.2l0-0.2l0-0.2l-0.1-0.1l-0.1-0.1l-0.1-0.1l0-0.1
	l0.1-0.1l0.1-0.1l0.1-0.3l0.1-0.5l0.1-0.1l0.3-0.1l0-0.2l0.1-0.2l0.1-0.2l0-0.1l-0.3,0.1l-0.2,0l-0.1-0.1l0-0.1l0-0.5l0-0.2
	l-0.1-0.1l-0.1,0l-0.1,0.1l0.1-0.2l-0.2-0.5l0.1-0.3l-0.1-0.1l0.1-0.2l0.2-0.1l0.2,0.1l0.2,0.1l1.7,0.1l0.2,0.1l0.1,0.3l0.2,0.5
	l0.2,0.4l0.3,0.3l0.4,0.2l2,0.6l0.5,0l0.4-0.1l0.1,0l0.1,0l0.1,0h0.1l0.1,0l0.1,0.1l0.2,0.1l0.1,0.1l1.7,0.2l0.2-0.1l0.1-0.1
	l0.7-0.2l1,0l2.1,0.3l1-0.3l0.1-0.1l0.1-0.1l0.1,0l0.1,0l0.3,0.1l1.2,0l2.2-0.4l1.7-0.2l1.7-0.3l4.8-0.9l0.7,0l0.2,0l1.7-0.7l6-1.2
	l0.4-0.2l0.3-0.1l0.6-0.4l2.2-0.8l1.7-0.4l0.8-0.5l0.8-0.3l0.9-0.2l0.2-0.1l0.4-0.2l1.3-0.5l0.4-0.2l0.5-0.5l0.1-0.1l0.4-0.1l1.7-1
	l0.8-0.6l1.1-0.6l1-0.7l0.4-0.4l0.2-0.5l0-0.2l0-0.4l0-0.1l0-0.1l0-0.1l0-0.1l-0.1-0.2l0-0.1l0-0.6l0.1-0.6l0.2-0.6l0.3-0.5l0.3-0.5
	l0.9-1.1l0.2-0.1l0.1-0.1l0.4-0.7l1.1-1l0.4-0.4l1.2-1.6l0.4-0.9l1.4-2.5l1-1.6l1.1-1.5l0.2-0.4l0-0.6l0-1.5l0-1.8l0-0.3l-0.3-0.7
	l0-1.6l-0.2-0.2l-0.1-0.1l-0.1-0.5l-0.1-0.2l-0.2-0.2l-0.1,0l0,0.2l0.1,0.3l-0.7,0l-0.2,0l-0.5,0.2l-0.2,0.1l-0.2,0.2l-0.1-0.1
	l0.2-0.2l-0.1-0.2l-0.2-0.1l-0.5-0.1l-1.1-0.7l-1.5-1.5l-0.1-0.3l-0.1-0.3l0-0.1l-0.2-0.2l-0.2-0.1l0-0.1l0-0.3l-0.3-0.7l0,0l0-0.1
	l-0.2-0.2l0-0.1l0-0.1l-0.1-0.3l-0.1-0.5l0-0.6l0.1-0.6l0.1-0.5l0.1-0.2l0.3-0.5l0.1-0.4l1.1-1.7l0.2-0.1l0.2-0.2l0.3-0.5l0.2-0.5
	l0.1-0.4l-0.1-0.4l-0.2-0.5l-1-1.5l-0.2-0.1l-0.1-0.1l-0.4-0.7l-0.2-0.2l-1.6-1.3l-0.1-0.2l-0.3-0.2l-1.1-0.6l-0.3-0.3l-1.6-1.1
	l-1.7-0.7l-0.7-0.5l-0.4-0.2l-1.4-0.5l-0.4-0.2l-0.7-0.6l-0.3-0.4l-0.1-0.4l-0.1-0.3l-0.2-0.1l-0.4,0l-0.2-0.1l-0.2-0.2l-0.1-0.2
	l-0.1-0.2l0-0.1l0-0.3l0-0.1l-0.4-0.3l-0.1-0.1l-0.1-0.4l0-0.1l0.2-0.2l0-0.1l0.1-0.6l0-0.1l-0.1-0.2l-0.2-0.2l-0.6-0.4l0.1,0
	l0.1-0.1l0-0.1l0.1-0.1l0.4,0l0.1,0l0.2,0.1l0.2-0.1l0.2-0.2l0.2-0.2l0-0.1l0.1-0.2l0-0.1l0.4-0.4l0-0.1l-0.1-0.2l0-0.1l0-0.2
	l0.1-0.4l0-0.6l0-0.3l-0.1-0.2l-0.1-0.1l-0.3-0.1l-0.1,0l-0.1-0.1l0-0.1l0.1-0.1l0-0.1l-0.1-0.7l0-0.6l-0.1-0.2l-0.1-0.2l-0.6-0.8
	l-0.2-0.4l-0.1-0.5v-0.3l0.1-0.9l0.1-0.3l0-0.1l-0.1-0.6l0-0.5l0.1-0.6l0.2-0.5l0.2-0.5l0.3-0.4l0.2-0.2l0.2-0.1l0.1-0.1l0-0.3
	l-0.2-0.5l0-0.2l0.1-0.6l0-0.3l0-0.1l0-0.1l0-0.1l-0.2-0.1l0-0.1l0.1-0.1l0-0.1l0.4-0.2l1.5,0.2h0.1l0.3,0l0.1,0l0.4-0.3l0.1-0.1
	l0-0.3l-0.1-0.6l0-0.3l0.2-0.5l0-0.2l-0.1-0.2l-0.3-0.5l-0.1-0.3l-0.1-1.3l-0.2-0.9l-0.1-1.5l0-0.6l0.2-0.6l0.1-0.1l0.3-0.6l0.7-1
	l0.1-0.4l-0.1-0.4l-0.7-1l-0.1-0.3l0.1-0.3l0.2-0.4l0.1-0.5l0-0.6l0-0.5l-0.1-0.4l-0.3-0.4l-0.1-0.3l0.1-0.3l0.3-0.3l0.2-0.1
	l0.2-0.1l0.5-0.1l0.2-0.1l0.1-0.2l0.6-1.9l0.1-0.5l-0.1-0.6l-0.3-0.4l-0.4-0.3l-0.3-0.3l0.1-0.4l0.2-0.2l0.4-0.2l0.2-0.1l0.1-0.2
	l0-0.6l0.1-0.3l0.1-0.1l0.2-0.1l0.1-0.1l0.2-0.5l0.1-0.1v-0.3l-0.1-0.5l0.1-0.5l0.3-0.4l0.2-0.4l-0.1-0.6l-0.4-0.7l-0.1-0.1l0.1-0.2
	l0.2-0.1l0.5-0.1l0.2,0l0.1,0l0.1-0.2l0.1-0.3l0-0.1l0-0.5l-0.1-0.5l-0.2-0.8l-0.1-0.3l-0.2-0.5l-0.2-0.2l-0.2-0.5l0-0.5l0.1-0.4
	l0.3-0.4l2.1-1.9l0.2-0.4l0.1-0.5l-0.1-0.5l0-0.3l0.1-0.1l0.2,0l0.5-0.1l0.2-0.1l0.4-0.3l1-1.3l0.9-0.7l0.1-0.2l0.1-1.4l0.2-0.4
	l0.3-0.3l0.5-0.2l0.4-0.1l0.5,0l0.2-0.1l0.2-0.2l0.8-0.8l0.1-0.1l0-0.1l0.3-0.3l0.1-0.4l0.2-0.2l0.4-0.3l0.1-0.1l0.1-0.2l0.8-0.7
	l0-0.1l0-0.1l0.1-0.2l0.1-0.1l0.2-0.1l0-0.1l0-0.1l0-0.1l0.1-0.1l0.1-0.1l0.1-0.1l0.1-0.1l0.4-0.2l0.1-0.1l0.2-0.2l0.1-0.2l0.2-0.5
	l0.1-0.2L324,105l0-0.2l0.1-0.2l0.1-0.2l0.3-0.4l0.3-0.3l0.4-0.3l0.4-0.2l0.7-0.2l0.2-0.1l0.1-0.2l0-0.2l0-0.5l0.2-0.5l0.7-0.4
	l0.2-0.4l0.1-1l0.1-0.2l0.2-0.1l0.5-0.1L329,99l0.9-1.2l0.7-0.5l0.2-0.3l0-0.5l0-0.2l0-0.2l0.1-0.2l0.3-0.1l0.3-0.1l0.3,0l0.1,0
	l0.1-0.1l0-0.1l0-0.1V95l0-0.1l-0.1-0.2l0.2-0.2l0.5-0.2l0.3,0.1l0.4,0.1l0.4,0.1l0.2,0.2l0,0.2l0.1,0l0.1-0.1l0.1-0.1l0.1-0.2
	l0.1-0.6l-0.1-0.3l-0.1-0.1l-0.2-0.1l-0.1,0l-0.4-0.2l-0.1-0.1l-0.1-0.3l0.3-0.2l0.7-0.2l0.4-0.4l0.1-0.1l0.1-0.1l0.1-0.2l0.1-0.1
	l0.2,0.1l0,0.1l0,0.1l0,0.1l0.1,0l0.1,0l0-0.1l0-0.1l0-0.1l0.1-0.1l0.1-0.1l0.1,0l0.1-0.3l0-0.1l0.1-0.1l0.1,0l0,0.1l0.1,0l0.1,0
	l0.3-0.1L337,91l0.5-0.6l0.1-0.1l0-0.1l0-0.3l0-0.1l0.1-0.1l0.1,0l0.1,0l0.2-0.1l0-0.2l0-0.2l0.2-0.2l0.1,0l0.2,0.1l0.1,0l0.1,0
	l0.4-0.3l0.1-0.2l0.2-0.2l0.2-0.1l0.2,0.1l0.2,0.2l0.2,0.1l0.1-0.3l0-0.1l0.1,0h0.2l0.1-0.1l0.2,0.1h0.2l0-0.1l-0.2-0.3l-0.3-0.3
	l-0.1-0.2l0.2-0.1l0.2,0l0.2,0.1l0.2,0.1l0.3,0l0.6-0.5l0.2-0.1l0.1-0.1l0.1-0.3l0.1-0.5l0-0.4l0.1,0l0.3,0l0.2-0.1l0.1-0.3l0-0.3
	l0.1-0.2l0.1-0.1l0.1-0.1l0.1,0l0.1,0.1l0,0.1l0,0.1l0,0.1l0,0l0,0l0.1,0.1l0,0l0.1,0l0.4-0.1h0.1l0.2,0l0.1,0l0.1-0.1l0-0.1l0-0.1
	v-0.2l0-0.1l0.1-0.1l0.1,0l0,0.1l0.1,0.2l0.1,0l0.1-0.1l0.1-0.2l0.1-0.2l0-0.1l0.1-0.1l0.1-0.1l0.1,0l0.1,0l0.1,0l0,0l0.1,0.2l0,0.1
	l0.1,0.1h0.1l0.7-0.2l0.2-0.1l0-0.2l-0.2-0.3l0-0.1l0.2,0l0.4,0l0.2,0l0.1,0.1l0,0.3l0,0.1l0.1,0l0.1-0.1l0.1-0.1l0-0.1l0-0.4
	l0.1,0.1l0.1,0.2l0.2,0.1l0.2,0l0.1,0l0.1-0.1l0.1-0.1l0-0.1l0-0.1l0.1,0l0.1,0l0.1,0l0-0.1l0-0.2l0-0.1l0.1-0.1l0.1-0.1l0.3-0.8
	l0.1-0.2l0.1,0.1l0.1,0.1l0,0.3l0.3,0.1l0.4,0l0.8-0.9l0.1-0.2l0.1-0.1l0.1,0l0.1,0l0,0l0.1,0l0.2,0l0-0.1l-0.1-0.2l0-0.2l0.1-0.1
	l0.1,0.1l0.1,0.1l0.2,0l0.1-0.1l0.1-0.4l0.1-0.1l0.1,0.1l0.1,0.2l0.1,0.2l0.1,0.1l0.1-0.1l0.1-0.2v-0.1l-0.1-0.1l0-0.1l0-0.1
	l0.2-0.1l0.1-0.1l0-0.2l0-0.3l0-0.2l0.1,0l0.2,0l0.1,0l0-0.1l0.5-1l0.1-0.4l0-0.4l-0.1-0.7l-0.1-0.4l0,0l-0.1,0l0,0l0-0.1l0.1-0.2
	l0-0.1l-0.1,0l-0.1,0l-0.1-0.1l0-0.1l0-0.1l0.1,0l0.1,0l0.1-0.1l0.1-0.2l0-0.2l-0.1-0.4l0-0.2l0.1-0.4l0-0.2l0,0l0-0.1l0-0.1l0-0.1
	l0-0.1l0.1-0.1l0.2-0.1v-0.4l-0.1-1.1l0.1-0.3L355.7,69.9z M232.2,474l-0.7,0.3l-0.3,0l-0.5-0.1l-2.6,0.4l-0.7-0.2l-0.8-0.1
	l-0.1-0.1L226,474l-0.1,0l-0.3,0l-0.1,0l-3.6-1.8l-0.9-0.9l-0.2-0.1l-0.3,0l-0.1-0.1l-0.3-0.3l-0.1-0.1l-0.4-0.2L219,470l-1.6-2.2
	l-0.5-0.4l-1.8-1l-0.3,0l-0.2-0.1l-0.7-0.8l-2.9-1.9l-2.9-2.6l-0.1-0.3l0-0.4l0-0.5l0-0.3l-0.1-0.2l-0.6-0.6l-0.1,0l-0.3,0.1l-0.1,0
	l0-0.1l-0.1-0.4l-0.2-0.3l-2.6-2.6l-0.1-0.2l-0.1-0.3l-0.5-0.8l-0.1-0.4l-0.1-0.8l-0.1-0.3l0-0.1l-0.1-0.7l0-0.2l-0.5-1.3l-0.2-0.3
	l-0.2-0.1l-1.8,0.3l-0.6-0.1l-0.6-0.2l-0.5-0.4l-0.3-0.5l-0.2-0.6l0-0.7l0.3-0.6l1-1l0.5-0.9l0.2-0.2l0.3-0.1l0.3,0l0.2,0.2l0.1,0.3
	l0.3,1.3l0.1,0.4l0.1,0.2l0.1-0.3l0-0.3l-0.4-1.9l-0.2-0.7l-0.3-0.6l-0.3-0.5l-0.7-0.7l-0.2-0.2l-0.7-1.3l-0.7-1l-0.1-0.2l-0.2-0.6
	l-0.1-0.1l-0.4-0.3l0,4.7l0,1.5v0.1l0,3.2l0,4.7l0,4.8l0,4.8l0,4.8l0,4.9l0,4.9l0.1,0l0.4,0.5l0.3,0.5l0.2,0.2l0.3,0.1l2-0.2
	l0.1-0.2l0-0.2l0-0.4l0.1-0.2l0.3,0.1l0.6,0.4l1,0.1l0.5,0.4l1.5,0.3l2.8,0.3l1.3-0.1l2.2,0.3l3.2,0.2l0.9,0.4l1.2,0.1l0.3,0.1
	l0.9,0.7l0.2,0.2l0.2,0.3l0.2,0.2l0.3,0.2l1.9,0.4l0.3-0.1l0.2-0.3l0.1-0.3l0.1-0.3l0.5-0.3l2.2,0.1l0.3-0.1l0.6-0.3l0.5-0.2
	l0.4-0.5l0.2-0.2l0-0.1l-0.1-0.3l2.3,0l0.2,0.1l0.1,0.1l0.1,0.1l0.1,0.1l0,0.1l0,0.1l0,0.3l0,0.1l0.1,0.2l0.1,0.1l0.2,0l0.2-0.1
	l0.1-0.1l0.1-0.2l0-0.2l0.1-0.2l0.4-0.1l0.9,0.1l0.2-0.3l-0.1-0.4l0.2-0.2l0.4,0l0.3,0.2l0.1,0.2l0,0.2l0,0.1l0.2,0.1l0.1,0l0.2-0.1
	l0.1-0.1l0.3-1.1l0.1-0.1l0.3-0.3l0.2-0.1l0-0.2l-0.1-0.2l0-0.2l0.1-0.1l0.4-0.3l0-0.1l-0.1-0.2l0-0.1l0.3-1l0.1-0.2l0.2-0.1
	l0.2-0.3l0.1-0.3l-0.1-0.1L232.2,474z"/>
</svg>
