<?xml version="1.0" encoding="utf-8"?>
<!-- Generator: Adobe Illustrator 21.0.2, SVG Export Plug-In . SVG Version: 6.00 Build 0)  -->
<svg version="1.1" id="Layer_1" xmlns="http://www.w3.org/2000/svg" xmlns:xlink="http://www.w3.org/1999/xlink" x="0px" y="0px"
	 viewBox="0 0 500 500" style="enable-background:new 0 0 500 500;" xml:space="preserve">
<style type="text/css">
	.st0{fill:#387799;}
</style>
<polygon class="st0" points="448.5,311.7 447.9,311.6 447.3,311.6 446,310.9 444.8,308.8 443.2,304.7 440.1,299.4 441.2,299.3 
	441.2,298.7 440.7,297.9 440.2,297.1 440.1,296.8 440.3,295.7 439.8,295.5 439.3,295.1 438.9,294.7 438.6,294.3 438.3,293.7 
	438.3,293 438.3,291.7 438.2,291.2 438.3,290.4 438.2,289.5 437.8,288.8 437.4,288.3 436.7,288 436.1,287.9 435.3,288 434.4,288.3 
	433.2,288.2 431.9,287.9 431,287.5 429.6,286.4 429.2,286.1 428,285.6 427.7,285.4 426.8,284.4 426.4,284.1 426,284 425.7,284 
	425.2,283.8 424.7,283.5 424.2,282.3 423.8,281.8 423.5,281.7 423,281.6 422.7,281.5 422.4,281.3 421.8,280.8 421.5,280.6 
	421.2,280.5 420.1,280.4 418.9,279.7 418.3,278.7 418.1,277.4 418.1,274.4 417.9,273.7 417.6,273.1 417.4,272.5 417.2,270.2 
	417,269.6 416.5,268.5 416.1,266.9 416.1,266.5 416.2,266.1 416.5,265.5 416.6,265.3 416.5,264 415.8,261.4 415.7,260 415.9,258.8 
	416.5,257.8 419.7,254.1 420.2,252.8 419.5,251.6 419.5,251 420.3,250.4 420.4,249.9 420.3,246.7 419.9,246.4 418.5,246.3 
	418.3,246.5 417.8,247.3 417.6,247.6 416.9,248 416.2,248.1 413.8,248 407.6,247.8 401.4,247.5 395.2,247.3 389,247.1 382.8,246.8 
	376.6,246.6 370.4,246.4 364.2,246.2 361.9,246.1 360.9,245.8 360.3,244.4 360,240.6 359.8,236.9 359.4,231.9 358.8,225.1 
	358.4,220.1 358.1,219.3 357.7,218.6 354.7,215 351.1,210.8 348.9,208.1 347.2,206.6 353.5,206.5 357.2,206.5 357.4,206.1 
	357.3,203.9 357.1,201.2 357,198.4 356.9,195.6 356.7,192.9 356.6,190.9 356.2,190.1 354.6,189 354.1,187.9 355.1,187.6 
	354.9,186.2 353.9,183.9 353.4,181.7 353.1,181.2 351.3,179.7 351,179.1 351,178.2 351.1,177.3 351.1,176.4 350.6,175.7 
	350.5,175.2 350.6,174.5 350.7,173.7 350.9,173.3 351.1,173.1 351.9,172.9 352.5,172.4 352.8,171.7 353.2,170.1 353.5,169.5 
	353.5,169.3 353.4,169 353.2,168.8 352.9,168.7 352.7,168.5 352.9,168.1 352.8,167.9 352.1,167.4 351.9,167.1 351.5,166.4 
	351.2,165.5 351,164.6 351,163.7 350.7,163.1 350.1,162.7 347.7,162.1 347.4,162 347.3,161.8 347.1,161.4 347,161.3 346.7,161.2 
	346,161 344.9,160.4 340,156.6 337.8,155.7 337.5,155.5 336.9,154.9 335.8,154.7 334.3,154.6 332.8,154.3 332.2,153.6 332.2,152.3 
	332,152 331.6,152.1 331.2,152.3 331.1,152.4 329.7,152.6 329.2,152.9 329,153.6 328.7,153.8 326.5,153.7 325.8,154 325.4,154 
	325.1,153.8 324.4,153.4 323.2,153.2 322.7,153 322.2,152.9 320,154.1 318.6,154.6 317.1,154.7 315.6,154.4 315.3,154.2 
	314.4,153.4 314.1,153.3 311.8,153.6 311,153.7 310.2,154 309.6,154.4 308.9,154.2 308.3,154.2 307.7,154.5 307,154.6 306.3,154.5 
	305.9,154.2 305.2,151.9 305.1,151.7 304.9,151.4 304.2,151.1 303.9,150.9 302.3,149.3 301.8,148.9 301,148.6 300.9,148.5 
	300.3,147.7 300.3,147.6 299.9,147.3 298.4,145.7 297.7,145.2 297.4,144.8 297.3,144.2 297.3,142 297.2,141.5 297,141.4 
	296.7,141.5 296.4,141.4 295.7,140.5 295.3,140.4 295.3,141.2 294.4,140.6 294.1,140.5 293.7,140.5 292.5,140.8 292,141.1 
	291.5,141.2 290.8,140.9 290.5,141.3 290,141.3 288.5,141.1 288.2,141.1 287.7,140.7 287.6,140.7 287.1,140.7 287,140.7 287,140.3 
	286.9,140.2 286,139.1 285.6,138.8 284.9,138.7 282.9,138.7 280,137.5 279.9,137.3 279.8,136.6 279.7,136.3 279.5,136 279.2,135.7 
	278.6,135.3 278.2,135.4 277.8,135.7 277.4,135.9 276.8,136 276.2,136 275.9,136.2 275.8,136.8 275.2,136.5 274.6,136.1 
	274.2,135.7 274.1,135.1 274,134.8 273.8,134.7 273.6,134.6 273.3,134.6 272.9,134.5 272.8,134.4 272.7,134.1 270.9,131.9 
	270.8,131.6 270.7,131.4 270.4,131.5 270.1,131.7 269.8,131.8 269.5,131.7 269.2,131.6 268.7,131.3 268.4,130.8 268.1,130.2 
	268,129.5 267.9,129.1 267.5,128.7 266.8,128.1 266.7,127.9 266.7,127.7 266.7,127.6 266.9,127.2 266.8,127 266.6,126.8 
	266.5,126.6 266.2,125.4 265.9,125 264.9,124.7 264.3,124.4 263.9,124.3 263.8,124.4 262.9,124.8 262.8,124.9 262.6,125.3 
	262.5,125.5 262.3,125.5 261.9,125.4 261.8,125.5 261.1,126 260.8,126.2 260.7,126.5 260.3,126.6 258,126.6 257.6,126.4 
	256.6,125.7 256.3,125.5 255.5,125.4 254.3,124.4 254.2,124.2 254.1,123.8 253.8,123.7 253.6,123.6 253.3,123.4 253.2,123 
	253.1,122.7 253.1,122.4 252.8,122 252.5,121.8 252.2,121.7 251.8,121.6 251.4,121.6 250.7,121.5 250.1,121.2 248.8,120.1 
	247,119.2 246.9,119.1 242.2,118.4 241.8,118.5 240.8,118.8 240.2,118.9 240.2,119.1 239.1,120.4 238.9,120.7 238.7,121 
	238.3,121.4 237.7,121.4 237.4,121.1 237.1,120.8 236.6,120.7 235.6,121.1 235,121.1 234.3,120.2 232.3,120.1 231.9,119.5 
	231.4,120.3 231,120.6 230.7,120.5 229.8,119.5 229.3,119.2 228.7,119 228.1,119.1 227.7,119.2 227.4,119.6 227.2,119.7 227,119.8 
	226.7,119.9 226.4,119.8 226.1,118.8 225.6,118.6 224.2,118.9 223.5,118.8 222.8,118.5 222.4,118.1 221.9,117.6 221.7,117.3 
	221.3,116.6 221,116.3 220.7,116.1 220,115.8 219.8,115.7 219.7,115.1 220.3,113.8 220.5,113.1 220.5,112.4 220.5,112 220.3,111.7 
	219.8,111.2 219.6,111.2 219.2,111.2 219.1,111.2 219.1,111.3 219.1,111.4 218.4,111 217.9,110.6 217.7,110.5 216.8,110.5 
	216.4,110.5 214.9,109.8 214.1,109.3 213.7,109 213.7,108.9 213.4,108.6 213.3,108.4 213.3,108.2 213.5,107.8 213.5,107.5 
	213.4,107 213.3,106.8 212.7,106.8 212.6,107 212.5,107.9 212.4,108.2 212,108.3 211.6,108.1 211.5,107.7 211.7,107.3 210.7,106.2 
	210.3,105.6 210.2,104.9 209.9,104.4 209.4,104.2 208.8,104.1 208.4,103.9 207.7,104.1 206.9,104 206.3,103.8 205.6,103.6 
	204.2,103.6 203.7,103.4 203.2,103.2 202.8,102.8 202.6,102.3 202.7,101.7 203.1,101 203.3,100.7 203.2,100.3 203,100 202.7,99.8 
	202.6,99.8 202.2,99.7 202.1,99.4 201.9,98.6 201.9,98.3 201.9,97.7 201.9,97.3 201.7,97 201.3,96.2 201,95.2 200.5,94.8 
	199.9,94.6 199.5,94.1 199.6,93.4 199.5,93.1 199,93.2 198.8,93.5 198.7,93.9 198.5,95.5 198.2,95.8 197.8,95.7 197.2,95.3 
	196.8,94.8 196.6,94.3 196.6,93.1 196.6,92.8 196.9,92.3 197,92 196.9,91.2 196.9,90.9 197.7,90.6 197.5,90.3 196.8,89.8 
	196.4,89.7 196.2,89.7 196,89.6 195.9,89.1 195.9,88.7 196.1,88.1 196.1,87.8 195.9,87.4 195.6,87.1 194.7,86.6 193.6,86.9 
	192.7,86 191.6,83.2 191.6,82.9 191.6,82.6 191.8,82.2 192.4,81.5 192.5,81.1 192.2,80.9 191.6,80.5 191,80 190.5,79.4 190.5,78.6 
	190.8,78.3 191.2,78 191.4,77.5 191.1,77.1 190.6,76.7 190.2,76.1 190.3,75.3 190.8,74.8 192,73.8 192.3,73.2 192.2,72.5 192,72 
	192,71.4 192.5,70.6 192.8,70.3 193.1,70.2 193.3,70 193.4,69.7 193.4,69.3 193.2,69 193,68.8 193,68.7 192.8,65.8 192.5,65.3 
	192,64.8 191.4,64.4 190.1,64.1 190,63.7 190.5,62.1 190.7,60.9 190.7,60.3 190.6,59.4 190.1,58.9 189.5,58.5 189,57.9 189,57.4 
	189.2,55.8 189.1,55.5 189,55.3 188.8,55 188.8,54.7 188.7,54.4 188.8,54.2 188.9,53.9 189,53.8 188.9,53.5 188.5,53 188.5,52.7 
	189.3,52.6 189.8,52.1 190.5,50.7 190.4,50.6 190.3,50.5 190.3,50.2 190.4,49.6 190.8,48.9 191.3,48.3 192.5,47.7 192.9,46.9 
	193.2,45.3 193.8,44.5 193.9,44.1 193.8,43.8 193.5,43 193.4,42.7 193.3,41.3 193.2,40.6 192.6,38.9 192.3,37.6 192.2,36.3 
	192.3,34.9 192.6,34.2 193.3,32.9 193.4,32.1 193.2,31.6 192.8,31.2 192.4,30.8 192.1,30.4 191.6,29 191.5,28.8 191.1,27.8 
	190.2,27 189.6,26.8 188.7,26.8 188.4,26.9 188,27.4 186.5,28.6 186.3,28.9 186.2,29.4 186,29.7 185.7,30.2 185.3,30.6 185.2,30.6 
	184.8,30.7 184.6,30.8 184.6,30.9 184.6,31.3 184.5,31.4 184.3,31.6 184.3,31.8 184.1,32 183.7,32 183.1,31.9 182.7,31.6 181.7,31 
	181.5,30.8 181.2,30.5 181,30.4 180.9,30.4 180.5,30.6 180.4,30.6 180.2,30.5 179.9,30.6 179.8,30.5 179.9,30.1 180,29.3 
	179.5,29.3 178.3,29.8 178,29.7 177.8,29.6 177.7,29.3 177.7,29 177.4,28.6 177.3,28.7 177,29.4 177,29.6 177,30 176.9,30.3 
	176.5,30.3 176.4,30.2 176.2,29.9 176,29.6 176,29.4 175.4,29.9 175.1,30.2 174.7,30.1 173.3,29.8 172.9,29.8 172.3,29.8 171.7,30 
	170.2,30.9 169.6,31 169.2,30.9 168.3,30.4 167.9,30.3 167.7,30.3 167.2,30.4 167.1,30.5 166.9,30.8 166.7,30.9 166.5,30.9 
	166.4,30.8 166.3,30.6 166.1,30.6 164.3,30.8 163.8,31 162.8,31.7 162.2,31.9 159,32.4 158.4,32.6 157.1,33.4 156.5,33.6 
	155.8,33.7 153.8,33.5 150,34.2 149.6,34.3 149.4,34.6 149.3,34.9 149.2,35.3 149,35.5 148.7,35.7 146.1,36.8 145.4,37.1 
	141.1,40.4 135.9,45.8 134.4,46.6 134,46.7 133.3,46.7 133,46.8 132.8,47.1 132.6,47.5 132.4,47.9 131.9,48.1 131.4,48.1 
	130.1,47.7 129.5,47.7 128.2,47.7 127.4,47.8 126.9,48.1 126.9,48.4 127.1,49.1 127,49.4 126.8,49.6 126.4,49.7 126.1,49.8 
	124.6,49.8 124.3,49.9 124,50.2 123.9,50.4 123.9,50.7 123.7,51.1 123.3,51.7 122.7,52.2 122.1,52.6 120.7,53.1 119.5,53.7 
	118.9,53.9 118.4,54.3 118,54.7 117.4,55.8 117,56.3 116,57.1 115.6,57.4 115.3,58.4 115,59.6 114.4,60.6 113.3,60.8 112.7,60.6 
	111.4,59.6 110.8,59.2 110.3,59.1 109.8,59 106,59.2 105,59 104.5,59.1 103.9,59.3 102.9,59.8 102.2,60.3 101.7,60.8 100.6,63 
	98.7,65 98.3,65.6 97.4,67.5 97,68.2 96.4,69 95.8,69.6 95.1,70 94.6,70.3 93,70.4 92.4,70.7 91.4,71.7 91,71.8 90.4,71.8 
	89.8,71.8 89.3,71.8 87.9,72.3 86.2,73.5 85.3,74 80.6,74.9 80.1,74.9 79.8,74.7 79.7,74.4 79.6,73.1 79.8,72.2 80.1,71.4 
	80.7,70.7 80.1,70.4 79.1,70.1 78.3,70.3 77.4,70.6 76.6,70.8 75.8,70.7 74.2,70.3 73.5,70.3 73.3,70.3 73,70.3 72.9,70.3 
	70.4,69.3 69.9,69.2 68.8,69.3 67.6,69 65.1,68.7 63.2,68.8 62,68.6 60.9,68.3 59.9,68.1 57.7,68.7 56.4,68.8 54,68.7 54.9,70.3 
	58.3,76.3 61.7,82.3 65.1,88.3 68.5,94.3 71.9,100.2 75.3,106.2 78.7,112.2 82.1,118.2 83.1,120 82.7,120.1 82.5,120.4 82.3,121.1 
	82.1,121.6 81.7,122.1 81.2,122.5 80.3,123 79.8,123.4 79.5,123.9 79.5,124.4 79.8,124.7 80.8,125 81.2,125.4 80.4,126.9 
	80.1,127.2 77.4,127.9 76.8,128.4 76.3,129 75.9,130 75.2,129.9 74.8,130.5 74.4,131.3 73.4,132.1 73.2,132.9 73.2,134.3 73.7,138 
	73.4,142 73.5,143.3 74,145.9 73.6,152.4 73.7,153.2 73.5,154 73.2,154.8 73,155.2 72.3,156 72,156.4 71.9,156.8 72,157.2 72,157.6 
	71.7,158 71.3,158.1 70.3,157.9 69.9,157.9 69.5,158.7 70.1,159.7 71.9,161.1 72.2,161.6 72.2,162 72.1,162.3 72,162.9 72,163.3 
	72.4,164.6 73,165.5 73.1,166.6 73.1,167.8 73.3,168.9 73.7,169.5 75.5,170.6 75.8,171.1 76,171.6 76.2,172.8 77,175 77.2,176.2 
	76.6,176.9 74.4,177.2 73.3,177.4 72.4,178 72.3,178.6 72.2,179.3 72.2,180.5 72.5,181.1 72.9,181.8 73.1,182.5 72.4,183.1 
	70.3,184.3 69.7,184.7 68.4,186.2 68.2,186.3 67.6,186.5 67.4,186.6 67.3,187.2 67.4,188.7 67.2,189.1 66.5,189.1 65.8,188.9 
	65.1,189 64.7,189.6 64.5,193.9 64,194.9 63.5,195.2 61.7,195.7 61,196.2 60.7,196.6 60.6,197.2 60.8,199.9 60.7,200.2 60.2,201.4 
	60,202.1 60.2,202.7 60.9,203.3 61.5,203.8 63.4,206.7 63.9,207.2 65.8,208.7 66.4,209.2 67.2,210.3 67.9,211.1 67.9,211.7 
	67.4,212.1 66.6,212.1 65.9,212.1 65.5,213.4 64.4,213.8 63.8,214.4 63.3,215 63.1,215.6 63.5,216.6 63.4,216.9 63.2,217 
	62.3,217.3 62,217.5 61.6,218.1 61.4,218.8 61.3,219.4 61.2,220.1 59,223.3 58.8,224.3 58.9,225.3 59.3,226.3 60.7,229.8 
	62.1,233.2 63.5,236.7 64.9,240.2 65.6,242 66.7,243.5 67.4,244 68,244.4 68.8,244.7 69.7,244.7 70,244.5 70.7,244 71,243.9 
	71.4,243.9 72.4,244.3 73.4,244 74.1,244.4 75.4,245.9 77.1,246.6 77.9,247.1 78.2,248 77.5,249.1 73.8,250.6 72.7,251.2 
	71.9,252.2 71.6,252.8 71.5,253.5 71.6,255.5 71.5,256.5 71.6,257.1 72.5,258.3 72.1,258.8 71.6,259.5 71,259.9 69.1,260.9 
	68.5,261.1 67.4,261.2 66.8,261.5 66.5,262 65.9,263.8 65.5,264.5 62.1,268.1 61.3,269.9 60.9,270.4 59.5,271.2 59.3,271.4 
	59.2,271.7 59.3,271.9 59.5,272.1 59.7,272.3 59.5,272.8 58.8,273.6 58,273.9 57,274.1 56.1,274.5 55.1,275.2 53.4,276.8 
	53.2,276.8 52.6,276.9 52.5,277 52.1,277.7 51.6,279.6 51,280.4 52.8,280.7 53.3,280.9 54.6,281.9 55.3,282.6 55.7,283.2 
	56.1,284.2 56.2,285.4 56.1,287.8 56.1,287.9 56.3,290.5 56.6,291.8 57.3,292.8 59.9,295.1 61.1,296.5 61.9,298 62.1,299.2 
	62.1,301.8 62.4,303 62.9,303.8 63.3,303.8 63.7,303.5 64.2,303.4 64.9,304.2 65.1,304.4 65.4,304.5 66.1,304.7 67.1,305.3 
	67.6,305.5 68.2,305.7 68.9,305.7 69.4,305.4 69.8,305.4 70.1,306 69.9,307.5 68.7,308.4 67.7,309.4 68.2,311 69.2,312.1 
	69.5,312.6 69.6,313.4 69.6,313.8 69.6,314.1 70.1,315.5 70.2,315.8 70.1,317.7 70.2,318.3 71.4,320.3 71.6,321 71.6,321.7 
	71.4,323.4 71.4,325.1 71.7,326.8 72.4,328.2 72.7,328.6 72.7,329.1 72.7,329.6 72.4,330 72.4,330.1 72.4,330.1 74.2,333.9 
	74.4,334.3 74.3,335 74.1,335.7 73.1,337 73.6,337.3 74,337.8 74.6,338.8 75.4,340.6 75.7,341.1 76.2,341.4 77.7,342 78.8,342.7 
	81.9,345.4 82.6,346.2 83.7,348.2 84.6,348.8 85.8,349.2 89.3,351.8 90,352.4 90.5,353.1 90.8,353.7 90.5,354 89.2,354.5 88.7,355 
	88,356 84.8,360.9 84.2,361.5 82.9,362.7 82.4,363.4 82.4,364 82.6,364.4 84.2,365.7 85.2,366.8 85.8,367.2 86.8,367.6 87.1,367.8 
	87.3,368.3 87.3,368.5 87.4,369.6 87.5,370 87.7,370.2 87.7,370.4 87.6,370.9 87,372.5 86.9,373.2 86.6,374.4 86.5,374.8 
	86.2,375.1 85.9,375.1 85.5,375 85.1,375 84.1,375.1 80.1,376.3 79.5,376.9 79.6,377.5 80.6,378.2 81.7,378.4 81.8,378.7 
	81.6,379.7 81.6,381.1 82,382.2 83.2,384.5 81.4,385.2 80.7,385.8 80.3,386.7 80.4,387.7 80.9,388.8 81.6,389.7 82.3,390.5 83,391 
	86.4,392.6 87.9,393.6 88.7,394 89.7,394.8 89.7,395.4 87.4,397.3 87,398.1 86.7,398.9 86.7,403.4 87.3,404.8 88.7,405.7 
	89.2,405.8 90.6,405.7 91.3,405.9 91.8,406.4 98.6,417.7 99,419.2 98.9,427.7 99.2,428.9 101.2,432.6 101.9,435.3 102.2,441 
	102.4,441.5 102.7,441.9 103.4,442.6 105,444.2 105.7,444.6 106.3,445.4 106.6,446.2 106.8,447 106.6,447.3 106.2,447.9 
	106.1,448.2 106.2,448.6 107.2,449.9 107.4,450.7 107.5,451.4 106.9,453.6 106.9,454.3 107.1,455 108.4,457.3 108.7,458.1 
	109,459.8 110,461.8 110,462.5 108.9,467.7 108.9,470.4 109,471.3 109.4,471.8 110.7,472.1 110.8,472.1 111.5,473.2 111.8,473.4 
	112.8,473.8 117.9,474.1 120.1,473.9 121.3,473.7 131.6,471.5 133.3,468.6 134.3,467.5 136.7,465.6 137.1,465 137.2,464.2 
	136.9,461 137.5,461 138.2,461 138.7,460.9 139.1,460.6 139.4,460.1 140.1,459.4 140.9,459 144.6,457.8 145,457.6 145,457.2 
	144.8,456.2 144.9,455.9 145.3,455.4 145.5,454.6 145.9,452 146.1,451.2 146.6,450.5 147.3,449.8 147.8,449.6 148.1,449.7 
	148.5,449.8 149.1,449.9 149.7,450 149.8,450 149.9,449.8 150,449.5 150.1,449.4 153.9,448.3 158.3,447.1 159,446.4 159.2,446.1 
	159.4,445.8 159.6,445.5 159.9,445.3 160.3,445.3 160.5,445.4 160.5,445.3 160.7,444.9 160.9,444.4 161.2,441.1 162.7,435.4 
	163.3,435.2 166.1,436.1 167.5,436.8 168.5,437.9 168.9,439.6 169,439.8 172,440.3 172.8,440.7 176.9,445.6 177.9,446.3 
	178.9,446.6 183.4,446.1 183.7,446 183.8,445.8 184,445.7 184.3,445.6 186.5,446 188.3,446.2 202.5,446 208.6,447.4 210.9,448.7 
	212.2,449 212.5,449 213.1,448.7 213.3,448.7 213.6,448.7 214.3,448.9 214.9,449.3 215.7,449.7 216.3,449.8 216.6,450 217.5,451.1 
	217.8,451.5 218.1,452.2 218.1,452.8 217.9,453.3 217.4,453.8 217.1,454.6 217.5,455.2 218.2,455.7 218.6,456.1 218.7,456.5 
	218.5,457.2 218.4,457.5 218.6,457.8 219.2,458.2 219.3,458.4 219.5,459.2 220,459.8 221.8,461.6 221.7,462.1 221.5,462.5 
	221.2,462.8 221.1,463.2 221.1,463.5 220.9,464.2 220.9,464.6 221,465.1 221.2,465.4 221.5,465.5 221.8,465.7 222.7,467.6 
	223,467.9 223.7,468.2 224.2,469 224.3,469.9 224,470.8 224.4,471.3 224.6,472.9 225.1,473.2 225.1,472.7 225.9,470 226.2,469.4 
	226.2,466.8 227.6,461.6 228.1,460.7 229.7,459.1 230.5,458 232.9,451.6 233.2,451.4 233.8,451 234.1,450.6 235.1,448.1 
	235.6,446.1 235.9,445.5 236.1,445.4 236.3,445.3 236.5,445.2 236.8,444.9 236.9,444.7 237,444 237.3,443.2 237.4,443 237.5,442.9 
	237.9,442.7 238.8,442.5 241.9,442.7 242.5,443 243.9,444.2 244.2,444.4 245.7,443 246.2,442.7 247.5,442.5 268,442.6 268,442.6 
	272.9,442.4 274.3,442.6 274.7,442.8 274.8,443.1 275,444.4 275,444.7 274.9,445 275.2,445.5 275.2,446.6 275.4,447.2 275.9,447.7 
	277.4,448.4 278.8,449.4 279.2,449.8 279.3,450.2 279.4,450.5 279.5,450.7 279.7,450.8 280.5,449.1 281.4,445.8 282.3,442.6 
	283.7,437.9 284.9,434 286.4,428.9 287.5,425.2 288.7,421.1 289.9,417.3 290.9,413.7 292,410.1 292.1,407.8 292,402.8 292,399.4 
	291.9,396.4 291.9,393.2 292.2,392.3 293.4,390.5 294.8,388.5 296.2,386.4 297.7,384.3 299.1,382.2 300.6,380.1 301.1,379.3 
	301.7,378.4 302.2,377.6 302.8,376.8 303.2,375.9 303.6,375 304,374.1 304.5,373.2 305.4,370.7 306.3,368.1 307.2,365.6 
	308.1,363.1 308.7,361.4 309,361 309.5,360.8 312.4,360.3 313.1,360.2 314.6,360 316.2,359.8 316.9,359.7 327.9,357.3 339,354.9 
	350,352.5 361,350.1 365.9,349 368.6,349 374.8,348.9 380.9,348.8 387,348.8 393.2,348.7 395.8,348.7 396.5,348.8 397.4,349.5 
	398.4,350.2 400,351.2 403.1,353.1 406.1,354.9 409.1,356.8 412.2,358.7 415.2,360.6 418.3,362.5 421.3,364.3 424.3,366.2 
	425.6,367 426,367.4 426.1,367.9 426,369.1 426.1,370.2 426.6,372.1 426.7,373.2 426.6,374 426.7,375.4 426.6,376.2 426.1,378 
	426.2,378.9 427.5,378.4 428,378.2 428.1,377.9 428.5,377.4 428.7,377.2 429.6,376.9 430.6,375.4 431.4,375.1 431.8,375 
	432.1,374.8 432.3,374.6 432.4,374.3 432.7,374.1 433.2,374.2 434,374.4 434.7,374 435.2,373.5 435.6,372.9 435.9,372.5 
	432.6,369.5 430,367.1 427.5,364.8 427.3,363.9 428.4,361.5 428.8,360.6 429.7,358.7 430.6,356.9 431,356 431,356 432,353.9 
	434.2,349.2 436.5,344.5 437.5,342.4 438.2,340.8 438.8,340.5 440.6,340.3 440.4,338.8 440.2,336.8 440.1,336.1 439.7,335.9 
	438.4,335.7 438.8,334.6 440.3,329.7 441.9,324.8 443.4,319.9 444.9,315.1 445.5,313.4 445.9,313 446.5,312.9 448.7,312.8 
	448.8,312.1 "/>
</svg>
