<?xml version="1.0" encoding="utf-8"?>
<!-- Generator: Adobe Illustrator 21.0.2, SVG Export Plug-In . SVG Version: 6.00 Build 0)  -->
<svg version="1.1" id="Layer_1" xmlns="http://www.w3.org/2000/svg" xmlns:xlink="http://www.w3.org/1999/xlink" x="0px" y="0px"
	 viewBox="0 0 500 500" style="enable-background:new 0 0 500 500;" xml:space="preserve">
<style type="text/css">
	.st0{fill:#387799;}
</style>
<polygon class="st0" points="460.9,207.6 460.3,207.1 459.8,206.3 459.7,205.8 459.7,204.6 459.7,204.1 456.8,194.3 456.8,193.4 
	457.3,192.3 457.4,191.6 457.4,191 457.1,189.8 457,189.1 457.3,188.4 458,187.9 458.8,187.5 459.4,186.9 459.5,186.3 459.5,185.8 
	459.3,185.3 459.2,184.8 459.4,182.2 459.2,181.1 458.5,179.9 458.1,179.8 457.5,180.1 457.2,180.1 456.9,179.7 456.6,179 
	456.4,178.7 453.8,176.7 453.5,176.3 453.1,176.1 452.4,176.2 451.7,176.1 450.9,175.6 449.7,174.5 447.9,171.9 446.6,169.2 
	444.6,161.9 443.8,160.9 442.8,160.3 441.4,159.8 440.6,159.4 439.2,158.1 438.4,157.7 437.8,157.6 436.4,157.7 435.8,157.5 
	435.2,156.9 434.6,155.6 434.2,154.2 434.6,153 435.6,152.7 436.7,153 437.9,153.5 438.9,153.7 440.1,153.6 441,153.6 441.9,153.8 
	446.5,156.3 448.2,156.4 449.9,155.3 450.5,155.2 452.7,155.5 453.7,155.5 454.6,155.2 455.4,154.8 456.9,153.7 457.7,152.8 
	456.5,152 452.4,150.5 448.7,149.9 447.4,148.9 445.9,148.4 442.1,146.1 439,143.4 437.8,143 437.2,142.6 436.3,141.6 435.3,140.7 
	434,140.3 432.8,140.4 430,141.1 428.4,141.2 427,141.1 425.8,140.8 424.7,140.3 422.8,139.3 420.2,137.4 419.6,136.5 415.7,134.1 
	414,132.6 413.3,131.5 413.1,130.3 412.7,129.5 408.3,124 408.1,123.2 407.4,122.3 406,122.4 404.3,122.9 403.1,123 402.8,122.5 
	402.4,120.8 402.1,120.1 401.5,119.8 400.8,119.8 399.3,119.9 397.7,119.8 396.3,119.4 395,118.9 393.8,118.1 392,116.1 
	391.3,115.9 390.6,116.1 389.4,117 389.1,117.2 388.7,117.5 387.1,119.4 386.5,119.6 385.8,119.8 384.4,119.9 383.8,119.8 
	383.8,120.2 383.6,125 384.3,129.3 383.1,130.1 376.7,130.8 375,131.7 374,131.8 372.8,131.4 371,129.8 370,129 369.1,128.8 
	365.9,128.4 363.6,127.8 362.8,128.1 363,130.7 362,130.7 359.7,129.7 358.9,129.6 354.3,130.3 353.3,130.2 352.4,129.9 
	351.3,129.1 349.9,127.7 349.2,127.2 348.1,126.8 347.3,126.7 344.7,126.7 342.7,126 340.2,123.2 338,122.6 336.9,122.9 
	333.6,124.1 332.1,124.2 331.1,123.8 330.2,123.4 328.9,122.9 322,121.5 319.7,120.7 317.9,119.3 317.3,117.7 317,115.8 
	316.4,113.6 316,106.8 315.1,103.6 312.4,103 310.2,103.2 307.8,102.3 303.5,99.4 302.1,97.3 301.7,92.7 299.7,91.1 298.1,91.1 
	292.9,93.1 291.6,93.4 290.3,93.4 288.9,93 287.4,92.4 286.7,91.8 286.5,91.2 286.6,90.4 286.4,89.8 285.7,89.1 285.4,89.1 
	285,89.2 284.4,89.2 279.9,87.6 275.3,87.4 272.6,86.1 264,79.7 262.7,79 258.8,77.9 257.6,77.3 256,76.2 249.9,69.4 248.7,68.5 
	245.1,67.7 244.1,67.7 243.2,68.3 242.8,67.2 241.4,65.8 241.2,65.1 241.1,63.9 240.4,63.7 239.5,64 238.5,64.1 237,63.7 
	235.7,62.7 234.7,61.4 234.1,59.9 233.4,58.9 231.5,57.3 230.1,55.4 226.3,52.8 226.2,53.5 226.4,54.4 226.5,55.4 226.1,56.3 
	223.7,58.7 223.1,59.4 222.8,60.3 223.3,61.2 224.3,61.6 225.7,61.8 226.9,62 227.4,63 224.6,62.1 223.5,62.2 222.4,63.4 
	222.2,64.1 222.2,64.7 222.2,65.1 221.6,65.6 220.9,66 220.4,66 220,65.8 219.8,65.2 219.1,66.2 218.5,66.8 218.1,67.6 217.9,70.4 
	217.6,71.6 216.9,72.5 215.7,73.2 215.5,71.4 215.1,69.8 214.3,68.5 213,67.4 211.4,66.9 210.5,67.4 205.5,73.9 204.3,74.5 
	202.7,74.9 200.8,75.5 198.9,75.7 197.4,75 196.6,75.3 195.8,75.5 194,75.4 193.4,75.6 191.9,76.1 191.4,76.3 186.8,75.9 
	185.3,76.3 180.9,80.3 177.8,82 175,81.2 173.8,81.9 173.3,82.8 173.1,84 173.2,85.7 173.2,86 172.8,86.6 172.8,87 173.1,87.4 
	173.9,88.1 175,91 174.5,90.5 173.7,88.8 172.9,88.1 172.2,87.6 171.7,87 171.4,86.1 172.7,82 172.7,81.4 172.3,80.8 170.6,81.9 
	166.7,83.2 165.1,83.9 164.7,84.4 163.8,85.6 163.4,86.1 161.4,87.6 160.9,87.9 160.1,88.1 158.8,89 156.8,89.4 155.2,90 
	154.2,90.1 153.3,90.4 152.1,91.6 151.1,91.8 148.9,92 148,91.9 146.8,91.4 144.9,92.9 143.5,95.2 142.8,98 142.8,100.8 143,101.8 
	143.4,102.8 144,103.6 144.8,103.9 146,104 146.9,104.5 147.5,105.3 147.9,107.2 148.4,108.3 148.8,109.6 148.6,110.9 148.1,112 
	147.5,112.6 147,113.3 146.8,114.8 147,116.1 147.5,117.3 149,119.9 149.9,120.8 150.3,121.3 150.4,122.1 150.3,122.7 149.6,124 
	149.5,124.8 149,124.8 148.7,123.8 148.5,123.3 148.2,123 147.5,122.7 147.3,122.9 147.3,123.5 146.7,125.2 146.8,130.1 
	147.3,132.8 147.5,134.4 146.3,137.8 146.3,138.6 146,139.1 145.7,139.5 145.5,139.9 144.9,141.8 144.6,142.5 144.2,142.9 
	143.7,143 143.4,143.3 143.3,144.1 142.8,145.4 141.7,146.7 137.7,150 133.8,154.5 132.8,155.3 131.4,156.2 129.8,156.5 
	128.5,155.8 127,158.1 125.1,160.1 124.7,160.6 124.5,161.3 124.5,162.7 124.3,163.6 123.9,164.2 122.7,165.2 120.6,167.4 
	119.3,168.4 118,168.8 116.9,169.4 117.2,170.7 119.3,174.3 120.3,176.7 121.5,178.4 122.1,179.9 122.2,180.5 122.4,180.8 
	123.6,182 124.6,184.4 125.4,185.3 126.9,185.6 131.6,185.6 132.5,186.1 132.5,186.5 126.9,186.9 125.3,186.8 124.2,186.3 
	123.4,185.5 122.7,184.3 122.5,183.6 122.7,183 122.6,182.6 121.8,182.5 121.3,182.8 120.7,183.4 120.2,184.1 120,184.5 
	119.7,185.9 117.3,189.2 115.7,192.8 115.5,193.8 115.3,198.2 115.1,199.4 112.5,203.5 111.7,204.3 111,204.5 109.8,205.4 
	109,205.6 108.3,205.5 107.3,204.9 106.6,204.8 105.9,204.8 105.5,205.2 105.1,205.4 104.8,205.6 104,205.8 99.6,205.6 99,205.8 
	98.3,206.3 97.6,206.5 96.8,206.3 96.2,206 95.7,205.8 94.9,206.1 94.6,206.7 94.1,208.4 93.8,208.7 93.5,209.1 92.9,209.7 
	92.4,210.6 92.2,211.1 92,211.4 90.8,212 90.4,212.3 90,214.7 90.8,217.5 92.3,220.1 99.5,229.9 100.3,232.2 100.1,233.2 
	99.2,234.9 99,235.8 98.9,236.7 99,238.5 99,239.4 98.5,240.3 97.9,240.8 97.3,241.1 96.7,241.6 96.4,242.3 96.3,243.1 96.3,245 
	96,245.6 94.3,248.1 94,248.8 94.1,249.8 94.4,250.6 95.3,251.8 96.8,255.5 97.6,256.7 98.2,257.5 98.8,258.5 99.2,259.7 
	99.6,262.4 102,269.3 102.2,270.9 101.9,272.1 100.5,272.8 100,273.2 100.1,273.8 100.3,274.3 100.8,276.7 100.5,280.1 99,282.4 
	91.8,287.8 90.3,288.5 88.9,288.7 88.5,288.5 87.9,287.6 87.6,287.4 86.8,287.4 85.1,287 84.9,286.8 84.7,286.5 84.5,286.2 
	84,286.1 83.7,286.4 83.9,287 84.2,287.7 84.5,288.1 86.9,290 87.8,291 88.8,292.5 89.3,293.5 89.7,295.6 90.2,296.2 91,296.4 
	92,296.4 93.5,296.9 96.2,299.3 97.4,299.8 101.3,300 103.1,300.4 104.8,301.2 104.8,300.8 107,302.5 112.4,307.5 119.3,315.6 
	121.8,317.2 122.4,317.4 123.6,317.6 124,317.7 124.4,318 125.2,318.8 126.2,319.3 128.9,321.6 131.7,322.7 133.2,322.9 
	133.8,322.3 133.9,320.9 133.9,320.2 133.6,319.7 131.8,317.8 131.6,317.7 131.4,316.4 131.6,315.3 132.2,314.8 133.2,315.2 
	133.5,315.7 133.7,316.1 134.1,316.3 134.7,316.3 135.3,316 135.8,315.4 136.3,314.5 138.4,313.6 140.4,311.4 144.9,305.2 
	147.7,298 148.3,297.2 149,296.7 149.7,296.7 151,296.8 151.5,296.5 152.2,295.8 152.5,295.6 153.1,295.5 151.8,297.6 151.3,298.1 
	150.6,298.4 149.9,298.5 149.3,298.8 149,299.6 148.8,301.2 147.5,304 147.3,305.4 147.6,306.3 148.6,306 149.9,305.4 151.3,305.2 
	152.8,306.7 153.7,306.9 154,305.6 154.4,306.3 154.4,306.9 154.2,307.5 153.5,307.9 152.8,307.8 152.3,307.3 151.9,306.8 
	151.5,306.5 149.8,306.7 149,307.3 148.8,308.2 148.2,309.6 146.2,310.9 145.4,311.9 145.7,313 146.6,313.6 147,313.8 148.4,313.6 
	148.9,313.8 149.3,314.7 150,315 150.9,314.8 153.2,313.5 154.2,313.2 154.8,312.8 156.7,310.8 157.1,310.1 157.8,307.5 
	158.8,294.8 158.6,292.9 156.7,289.4 156.3,287.6 156.3,285.6 156.9,283.1 157.5,281.5 157.6,281 158.1,280.4 160.2,280.3 
	160.7,280.1 160.7,278.9 160.9,278.3 161.3,278 165.1,275.9 164.7,277.3 163.6,278 162.5,278.5 162.1,279.2 161.7,280.7 
	160.9,281.2 159.9,281.5 158.9,282.6 159.4,283.4 159.2,283.9 158.8,284.5 158.5,285.2 158.4,286 158.6,286.4 158.8,286.8 
	158.9,287.2 159.1,287.4 159.9,288.5 160,288.7 160.3,289.1 160.2,290 159.8,291.4 159.8,292.3 160.3,295.3 160.2,299.1 160.3,300 
	160.7,300.8 161.5,302.1 162.8,305.6 163.6,306.7 164.1,307 164.9,307.1 166.3,307 166.5,307.3 167.4,309.6 167.8,312.5 
	167.7,314.1 167.2,315.2 165.2,317.2 164.5,318.3 163.1,322.1 162.8,323.6 162.2,325 162.1,325.5 160.7,327.9 158.6,334.5 
	158.5,335.7 157.6,338.2 157.4,339.7 158.1,340.8 157.5,342.1 155.3,345.6 154.2,347.9 153.9,350.4 153.6,351.9 152.9,353.3 
	151.9,354.4 149.9,355.7 149.3,356.1 148.8,356.9 148.4,357.6 147.9,358.2 147.3,358.6 147.7,355.5 147.4,354 146,353.7 
	145.3,354.6 142.8,359.7 142.5,360 141,361.7 140.4,362 139.9,361.9 139.4,361.8 138.5,361.7 133.8,362.7 133,363 131.2,361.3 
	130.5,362.2 130.1,364.3 129.4,364.9 128.9,363.5 129.2,363.1 129.8,361.3 129.2,362.2 128.9,363.1 128.5,363.9 127.6,364.4 
	127.4,365.1 127.5,365.5 127.6,366 128,366.2 129.1,366.8 131.6,367.4 132.5,368.1 132.3,369.3 131.9,370.6 132.1,372 132.5,372.3 
	133.6,372.8 134,373.2 134.1,373.8 134.1,374.5 134,375.7 133.5,377.4 133.5,378 133.9,378.4 134.5,378.6 135.1,378.9 135.3,379.5 
	135.3,380.2 135.7,381.4 135.8,382.2 135.6,382.8 135.3,384.1 135.1,384.6 135.1,385.3 135.2,385.8 135.6,387 135.6,387.7 
	135.4,388.1 135.2,388.6 135.1,389.1 135.3,390.4 136.6,392.5 137.2,393.8 137.3,394.4 137.3,395.6 137.5,396.1 138.1,396.8 
	138.7,397.2 139,397.6 139,398.2 138,399.4 132.9,401.7 132,402.9 131,404.4 129.9,405.7 128.6,406.4 127.3,406.1 124.6,404.7 
	123.2,404.3 121.9,404.2 120.6,404.3 119.4,404.6 118.4,405.3 117.7,406.4 116.9,407.9 116.4,409.6 116.3,410.8 116.6,411.6 
	117.7,413.1 118,414 118,414.5 117.8,415.8 117.8,416.4 119.2,419.3 121.4,419.5 124.3,418.7 127.3,418.3 126.6,419.7 117.9,431.2 
	117.7,432.3 118.2,433.6 119.1,434.4 122.1,436.1 123.2,436.4 124.3,436.4 124.8,436.4 125.5,435.8 128.1,434.4 133.1,430.6 
	134.2,429.5 134.7,428.4 135.3,426.1 135.9,425.2 136.4,424.8 137.1,424.5 137.8,424.2 140.5,423.9 140.6,423.8 141.1,424.5 
	142.1,424.9 143.5,425.1 144.6,425.5 145.8,426.5 147.9,428.8 149.2,429.7 151,430.7 152.7,430.9 154.4,430.9 156.1,431.3 
	157.7,432.8 159.1,434.9 160.7,436.6 163.2,436.9 167.5,435.6 169.8,434.3 172.1,433.9 173.9,434.8 177.2,438.1 177.8,438.3 
	178.7,439 179.1,439.2 180.7,439.2 182,440 182.4,440.6 182.2,441.5 180.7,444.2 180.7,445.6 182.5,448.4 183.3,452.2 185,455.4 
	185.2,456.7 185.7,458.1 186.8,459 188.2,459.7 189.3,460.5 189.7,461.1 190,462.4 190.4,463 191,463.4 192.3,463.8 192.8,464.2 
	193.7,465.5 194.4,466.8 195.3,467.9 196.8,468.3 201.4,468.1 202.6,468.3 204.8,469.1 205.9,469.3 206.6,469.3 207.6,469.1 
	208.3,469.1 209,469.5 209.7,470 210.9,471.2 212.8,469.6 214.5,467.8 214.9,466.5 215.7,463.3 216.4,462.2 217.7,461.9 
	219.4,461.9 220.9,461.6 221.6,460.3 221.3,458.7 219.8,455.8 219.7,454 220.5,452.2 221.7,450.5 224.7,447.8 227.4,446.3 
	233.4,443.9 235.9,442.3 236.5,441.2 236.5,440 236.5,438.7 236.6,437.5 237.6,436 238.6,434.7 238.8,433.7 237.2,432.7 
	236.4,431.5 235.9,429.1 235.8,426.6 236.4,425.3 237.6,424.3 238.1,423 238.7,420.2 242.7,411.9 243.4,409 243.4,405.1 
	243.7,404.1 244.4,403.4 245.1,403.2 245.9,403.2 246.7,402.9 247.6,402.4 247.9,402.1 247.9,401.7 248.5,396.9 249,395.6 
	249.7,394.4 250.1,394.1 250.9,393.7 251.4,393.4 253,391.8 253.4,390.6 252.5,386.4 252.5,385.6 252.6,385.2 252.9,385.1 
	253.7,385 254.2,384.6 254.2,384 254,382.6 254,380.3 254.1,379 254.6,377.7 255.7,375.1 256.7,372.2 257.2,369.4 257.2,368.7 
	256.8,367.4 256.8,367 257.5,365.7 258.6,365.4 259.9,365.6 262.8,366.4 263.6,367 264.1,368 265,372.2 265.6,373.3 266.5,373 
	267.5,372.1 268.7,371.8 269.7,371.4 270.3,370.1 270.1,368.3 269.3,367.4 268.3,366.7 267.6,365.5 267.6,364 268.3,363.1 
	270.7,361.4 271.5,360.2 273.5,356.4 274.5,355.4 277.6,352.8 284.2,344 289,339.8 290.2,339.2 294.6,337.7 302.8,334.8 311,332 
	319.2,329.1 327.4,326.3 335.6,323.4 343.8,320.5 352,317.7 360.2,314.8 366.2,312.8 370.1,310.4 373.8,307.6 377.7,304.6 
	381.6,301.7 385.5,298.7 389.4,295.8 393.3,292.8 397.2,289.8 401.1,286.8 405,283.9 408.2,280.1 411.5,276.3 414.8,272.6 
	418,268.8 421.3,265 424.5,261.3 427.8,257.5 431.1,253.7 433.7,250.7 437.2,247.4 438.8,245.5 439.7,243.3 440.6,239.5 
	442.6,231.9 444.5,224.2 446.5,216.6 448.5,208.9 449.3,205.7 449.7,205.2 451.5,206.8 452.4,207.9 452.8,208.5 453.4,209.1 
	454.9,209.1 457.7,208.7 460.8,208.7 461.3,208.7 461.3,208.3 "/>
</svg>
