<?xml version="1.0" encoding="utf-8"?>
<!-- Generator: Adobe Illustrator 21.0.2, SVG Export Plug-In . SVG Version: 6.00 Build 0)  -->
<svg version="1.1" id="Layer_1" xmlns="http://www.w3.org/2000/svg" xmlns:xlink="http://www.w3.org/1999/xlink" x="0px" y="0px"
	 viewBox="0 0 500 500" style="enable-background:new 0 0 500 500;" xml:space="preserve">
<style type="text/css">
	.st0{fill:#387799;}
</style>
<path class="st0" d="M477.3,250.4l-2.3-1.8l-2-2.9l-1.3-3l-1.2-4.8l-0.9-1.4l-3.9-2.7l-10.1-3.7l-8.1-4.1l-0.8-0.3l-0.9-0.5l-1.1-1
	l-1.2-0.6l-1.2,0.6l-0.4,1.4l1.2,0.7l1.6,0.5l0.8,0.8l0.7,0.5l3.2,1.2l1.2,0.2l-0.3,0.7l-0.2,0.3l0.5,0.5l1.3-0.6l1.1,0.2l2.2,1.3
	l1.4-0.7l0.9,0.8l0.5,1.4l0.2,1.1l0.3,0.8l0.4,0.4l0.4,0.3l0.3,0.5l0.3,0.8l0,0.3l-3.3,1.2l-0.6,0.4l-0.5,0.5l-0.7,1.1l-0.4,0.4
	l-1.5,0.6l-0.9-0.5l-0.5-1.3l-0.2-1.8h-0.6l-0.3,0.5l-0.2,0.4l0.1,0.5l0.4,0.6l-0.4,0.3l-0.5,0.2l-0.4-0.1l-0.2-0.7l0.1-0.8l0.3-0.4
	l0.3-0.2l0.3-0.4l0.5-1.1l0.4-0.7l0.5-0.3l0.6,0l0.8,0.1l0.6,0.2l0.3,0.4l0.4,1.3l0.9,0.3l0.9-0.5l0.4-1.1v-2.3l-0.1-0.5l-0.2-0.3
	l0-0.3l0.4-0.5v-0.5l-1.3,0.2l-4.8-0.9l-0.6-0.2l-0.5,0l-0.5,0.3l-0.1,0.6l0.2,1.7l-0.3,0.3l-2.7,0.3l-1.5,0.4l-1.2,0.7l-1.3,2.2
	l-0.6,0.3l-0.7-1.5h-0.6l0,1l-0.4,0.5l-0.6,0l-0.6-0.5l-0.2-0.7l0.2-2.8l-0.5-2.2l-0.8,0.1l-1,0.7l-1.2-0.3v-0.5l0.4-0.2l0.6-0.5
	l0.5-0.3l-0.7-0.9l-0.8-0.8l-0.9-0.6l-2.1-0.4l-1.3-0.5l-1-0.7l-0.4-0.8l-1.1-1.5l-6.7-2.8l-1.7,0.6l-0.7,0.4l-0.7,0.6l0.9,0.6
	l1.7,2.4l0.9,0.6l5.7,2l0.8,0.1l0.7,0.2l0.3,0.4l0.3,0.5l0.5,0.5l3.2,1.7l0.9,0.9l-1.1,0.8L432,235l-1.7,0.4l-1.4,0.2l-1.6-0.3
	l-1.2-0.8l-0.9-1.2l-0.6-1.3v-0.5l0.8-0.4l0.5-0.1l0.7,0v-0.5l-3.7,0.4l-1.4-0.2l-1-1.2l0.6-1.2l-0.3-1.2l-0.9-1l-1-0.8l0.7,2.2
	l-0.7,0.7l-1.6-0.4l-1.9-1l-1.3-1.3l-1.3-2.1l-0.6-1.9l0.8-0.8l1.6-0.7l-0.4-1.7l-1.2-2l-1-2.4l-0.7-0.4l-0.7,0.2l-0.7,2.1l-1.5,0.7
	l-0.2,1.1h-0.5l0.2-0.9l0.2-0.8l0-0.6l-1.4-0.5l-0.5-0.6l-0.6-1.7l0.9,0.1l1.3,0.3l0.9,0.1l1.3-0.4l1-0.2l0.9,0.1l0.8,0.9l2.2,4.2
	h0.5l0.2-0.3l0.1-0.1l0.1-0.1l0.2-0.2l-0.9-1.1l-0.9-1.4l-0.5-1.3l0.2-0.8l0.6-0.1l0.9,0l0.8,0.1l0.4,0.2l-0.2,0.5l-0.4,0.5l-1,0.8
	l2.1,0.7l0.5,0.3l1.1-0.7l0.5-0.6l0.7-0.5l1.5-0.2l1,0.4l1.1,0.9l1,0.6l0.8-0.4h0.5l2.5,2.7l0.6,0.9l-0.4,0.1L428,219l-0.3,0.1
	l0.9,0.8l1,0.2l2.3,0l0.7,0.3l1.4,1l2.1,0.7l2.8,2.2l1.3,0.5l1.1-0.1l0.5-0.4l0-0.6l-0.5-0.7l-0.7-0.3l-2.6-0.4l-1.4-0.6l-1.4-0.8
	l-5-4.4l-4.2-3.2l-7.6-7.2l-8.7-6.7l-4.3-4.7l-2.4-1.2l-0.6-1.1l-0.6-0.6l-0.9-0.3l-10.1-0.8l-11.8-2.3l-0.9-0.1l-0.5,0.5l1,0.5
	l11.4,2.1l1.5,1h-3.6l-1.7,0.6l0.2,1.4l-3.9,0.2l-1.6-0.4l-0.6-1.6l-0.4-0.5l-0.8,0.9l-0.7,1.3l0.1,0.6l-1.5,0.1l-0.6-0.3l-0.7-0.8
	l-0.6-1.2l-0.3-1.5l0.2-1.3l1.4-0.8l-0.6-0.5l-1.6-0.8l-2.6-0.5l-12.4-5.1l-8.9-2.5l-3.3,0.1l-1.9,0.1l-6.7,4.2l-2.2,0.8l-2.6,0.5
	l-11.8,0.5l-9.5,0.8l-3.1-0.3l-2.7-0.6l-4.8-1.8l-1.1-0.3l-1.1-0.5l-1.2-0.9l-1-0.5l-0.5,0.9l-0.2,0.2l-0.2,0.1l-0.2,0.2l0,0.5h-0.6
	l-0.2-0.8l0-1l-0.2-0.9l-0.8-0.4l-1.2-0.2l-1.9-1.1l-1-0.2l-4.1-0.5l-2.1-0.6l-1.2-0.9l-0.8,0.4l-1.6,0.3l-0.6,0.4l-6.2-1.7
	l-1.9,0.2l-0.4,0.8l2.3,0.6l4.7,0.7l1.2,1.5l-0.7,1.8l-1.6,1.7l-2.9,2.1l-0.8,0.4l-0.9,0.3l-10.7,0.4l-2.6,0.6l-2.6,1l-0.8,0.7
	l-1.8,2l-7.1,4.3l-1.2,0.6l-1.5,0.2l-1.8-0.1l-1.2-0.3l-1.7-1.1l-0.1-0.1l-2.3-0.9l-2.5-0.1l-14.6,1.2l-3.2-0.3l-0.4-0.3l-0.9-0.5
	l-0.9-0.3l-0.4,0.3l-0.3,0.1l-1.2,0.9l-0.2,0.2l-1.3,0.2l-4.6,1.3l-2.8,0.3l-2.7-0.2l-8-1.8l-6.9-0.7l-6.7-2.3l-7.7-1.7l-1.5,0.1
	l-1.1,0.7l-0.4,1.3l-0.4,0.3l-1.9-0.1l-0.7,0.1l-0.4,0.4l-0.8,1.2l-0.4,0.4l-2.4,0.5l-2.3-0.9l-7-6.1l-0.4-0.5l-0.6-0.5l0.5-1.2
	l1.4-1.9l-2.6,1.5l-0.8,0.9l0.8,0.7v0.5l-1.3-0.1l-3.3-1.9l-1.3-0.4l-1.3-0.2l-0.5,0.1l-0.6,0.2l-0.4,1.1l-1.3,0.4l-6.4,0.4
	l-2.2,0.7l-1.2,0.8l-1.3,0.4l-3.2,0.1l-0.3,0.2l0.3,0.5l0.7,0.5l0.8,0.2l0.4,0.3l-0.2,0.7l-0.5,1l-4.4,2.6l-2.9-0.4l-0.7,0.2
	l0.4,1.2l-1.8,1.1l-4.3,4.5l-2,0.8l-1.8-0.6l-3.4-2.3l-0.5-0.2l-0.9,0.3l-0.2,0.7l0.1,0.8v0l-0.5,1l-0.5-0.6l-1.3,0.5l-1.1,0.6
	l-1.2,0.4l-1.6,0l-0.4,0.5l-2.3,3.8l-3.5,3.3l-5.1,3.9l-2.4,1.8v0l-19.5,14.6l-15.9,12l-2.6,1.2l-7.6,2.5l-2.3,1.1l-0.3,0.3
	l-0.1,0.1l-0.3,0.2l-0.8,0.6l-0.9,1.3l-1.2,3.4l0,0l1.5,1.3l0,2l-0.9,2.1l-1.3,1.8l-1.9,1.6l-0.6,0.9l-0.1,1.4v0l0.4,1l0.7,1
	l1.5,1.8l0.7,1.1l1.4,3.3l0.8,1l0.7,0.6l0.3,0.5l0.1,0.2l0.1,1.3l0,0l-0.2,0.6l-0.8,0.8l-0.3,0.5l0,0l0.3,3.8l0,1.3l-0.3,1.2
	l-0.9,0.8l-0.9,0.1l-1.9-0.6l-0.9-0.2l-1.3,0.2l-0.6,0.4l-0.4,0.6l-0.7,0.8l-2.3,2l-1,1.1l-0.7,1.3l-0.6,0.6l-1.7,0.4l-0.8,0.5
	l-0.5,1l-0.1,1.2l0,0l0.2,2.3v0l4,0.6l2.3,1.1l3.8,0.8l1.9,1.3l3.5,1l0.4-0.3l0.4-0.3l1.1-2l0.6-0.6l0.7-0.2l0.4,0.1l0.4,0.3
	l0.4,0.6l0.4,0.7l0.2,0.7L41,302l-0.3,0.7l0.9,0.7l2.5,0.3l1.2,0.6l0.5,0.9l0.3,2.3l0.3,0.7l1.9,1.4l0.7,0.8l0.7,1.1l0.1,0.5
	l0.1,0.5l0,0.3l0,0.4l0,0.3l0.2,0.8l0.7,0.5l0.7-0.2l0.9-0.5l1-0.4l1.2,0l1.9,1.2l1.6,1.9l1.1,2.2l0.5,2.1l1.3-0.2l3.3,0.2l0.9-0.3
	l0.8-0.5l0.3,0l0.3,0l0.5,0.8l0,0l-0.1,1.3l-0.5,1.2l0,1.1l1.2,0.7l1.6,0.2l0.3,0.1l0.5,0.5l0.4,0.5l0.2,0.6l0,0.5l0.5-0.2l1.9-0.3
	l1.9,0.1l5.7,1.8l3.3,0.2l0.7,0.3l0.7,0.6h0l-0.1,0.2l0,0.2l-0.1,0l-0.1,0l-0.2,0l-0.2,0L85,331l0.4,0.8l-0.1,0.9l-0.3,0.9l-0.2,1.1
	l0.2,0.7l0.8,2l0.1,1.2l-0.7,1.1h0l2-0.1l1.4-0.8l1.4-0.6l3-0.6l0.7,0L95,338l0.5,0.1l0.1-0.2l0-0.2l0-0.2l0.1-0.5l0.2-0.3l0.5,0
	l0.6,0.1l0.3,0.1l0.3,0.1l0.2,0.1l0.2,0.1l0.5-0.9l0.8-0.3l0.5,0l0.5,0l0.8-0.3l0.6-0.5l0.3-0.5l0.3-0.5l0.5-0.5l0.9-0.4l0.7,0.1
	l0.5-0.1l0.4-1l-0.1-0.2l-0.7-0.6l-0.2-0.3l-0.1-1.5l0-0.3l0.7-0.3l1.1,0.1l0.2,0l1.8,0.4l1.2,0l3.9-0.5l2,0.1l0.9,0.7l1.1,2.8
	l0.5,0.6l0.5,0.6l0.7,0.6l0.7,0.6l0.6,0.7l0.6,0.7l0.6,1.9l3.4-1.7l1.1-0.3l0.6,0.1l1.1,0.7l0.5,0.1l0.3-0.2l1-0.7l0.6-0.2l0.7,0
	l1.5,0.3l0.7,0l0.7-0.5l0.6-0.8l0.7-0.6l1.1,0l0.7,0.5l0.7,2l0.6,0.9l0.4,0.2l1,0.4l0.5,0.2l1.2,1l2.1,1.8l1.3,0.5l-0.7,1.1
	l-1.5,3.4l-0.4,1.2v0l0.5,1.2l-0.4,0.8l-0.7,0.7l-0.7,0.9l-0.3,1.3l0.1,2.8l-0.2,1.4l-1.8,4.2l-0.4,2.1v0l0.4,0.9l0.4,0.9l0.8,0.3
	l0.8-0.3l0.8-0.3l1.1,0.4l0.6,0.7l0.4,0.9l0.1,1v0l-0.2,1l-1.3,1.4l-5.9,2.6l1.1,0.4l0.5,0.1l0.7,0l0.3,0.2v0.5l0.1,0.5l1.4,0.5
	l1.7,1l1.3,0.3l2.1-0.6l2-1.5l1.1-2l-0.7-2.1l0.7-0.8l1-0.9l0.9-0.2l0.4,1.1l-0.3,2.1l0.2,0.8l1,0.4l-0.8,1.9l-0.1,0.7h0.5l1-0.9
	l1.3,0.1l1.5,0.5l1.4,0.3v0.5h-1.1v0.5l0.7,0.3l0.7,0l1.2-0.3l2.6,0.1l0.5-0.1l0.7-0.6l-0.1-0.4l-0.3-0.5l0.1-1l0.4-0.7l0.4-0.4
	l1.3-0.9l0.7,0.7l0.6,0.1l1.5-0.3l0.7,0.1l0.5,0.4l1.1,1l0,0l-0.1,0.5l0,0.4l0.1,0.6l-2.4,0.9l-1.2,0.3l-1-0.2l-0.5,0.5l-1.5,2.1
	l-0.7,0.6l-1.3,0.6l-0.6,0.4l-0.6,0.7l-0.1,0.6l0.3,0.6l0.5,0.7l0.4,0.1l0.5-0.1l0.4,0l0.2,0.3l0.1,0.1l0.5,1.2l1.5,1.9l1.4,2.6
	l1,2.9l0.2,2.9h0.5l1.4-0.4l2.4,0.3l4.3,1.1l-0.8,0.2l-2.3,0.3l-0.5,0.2l-0.1,1.2l0.1,0.4l0.5,0.7l1,1.1l1.1,0.6l1.5,0.3l2.1,0.1
	v0.5l-1,0.4l-0.8,0.5l-0.5,0.7l-0.2,1l-0.7,0.5l17.1-1.1l1.1,0.1l1.7,1l0.9,0.1l0.4-1.2l1.6-0.7l1.9-1.2l0.8-0.9l1.7-2.7l0.4-0.3
	l0.5-0.3l0.6-0.3l0.2-0.2l0.2-0.2l0.2-0.7l0,0l-0.3-0.3l-0.2-0.1l-0.2-0.1l-0.2-0.5l0.6-3.9l-0.1-0.2l-0.6-1.2l-0.1-0.4v0l0.1-0.2
	l0.5-2.1l0.5-1l0.6-0.7l3.6-3l1-0.7l1.2-0.3l1.3,0.1l4.3,2.1l0.7,0.2l0.7-0.2l0.6-0.4l0.5-0.3l1-0.9l0.6-1l0.2-1.1v0l-0.4-2.1
	l-0.1-0.2l-0.1-0.2l-0.3-0.5l-0.3-0.5l-0.5-0.4l-0.5-0.1l-0.4-0.2l-0.3-0.7l0.1-1.1l0.9-2.1l0.1-1.2l-2.4-9l0-1.3l0.2-1.2l0.2-1.2
	l-0.1-1.2l-0.3-0.5l-0.5-0.4l-0.1-0.1l-0.3-0.3l-0.3-0.4l-0.1-0.7l0.2-3.9l0.1-1.3l0.2-1l0.1-0.5l0.4-0.3l0.9-0.6l1.7-0.8l1.6-0.1
	l3.3,0.4l6.1-1.1l3-0.2l2.5,1.3l1.3,0.4l1.1-0.3l1-0.5l1.1-0.2l1.2,1.2l0.4,0.3l0.7,0.2l0.5,0.1l3.9-0.2l1.4-0.3l1.1-0.5l0.9-1
	l0.2-0.6l0.2-0.6l0.6-2.2l1.2-1.8l2.4-2.6l2.5-2.6l2.6-3.9l0.8-0.5l0.9-0.3l0.9-0.5l0.9-0.9l0.5-1l0.3-0.7l0.4-0.6l0.8-0.7l1-0.5
	l5.7-0.8l0,0.8l-0.8,1.6l0.2,2l5.3,3.7l1.6,2.1l0.5,0.5l1,0.3l0.7-0.1l0.7-0.3l1-0.1l1.6,0.7l0.9,1.3l0.7,1.5l1.2,1.4l1.7,0.6
	l1.7-0.1l1.5,0.1l1,1.1l0.2,0.1l0.7-0.6l0.6-1.2l0.2-1.2l-0.4-0.9l-1.1-0.3l-0.3-0.6l0.3-1.4l0.7-2.2l0.1-1.6l0.4-0.4l0.8,0.2
	l1.3,0.1l1-0.4l1.5-1.3l0.6,0.2h0.5l0-0.4l0.1-0.1l0.2,0l0.2-0.1l-0.2-0.8h0l1.3-0.4l1.3-0.4l0.7-0.7l0.7-1l1.6-0.5l0.4-0.1l0.2,0
	l1.2-0.2l1.4-0.4l0.7-1l0.2-1.2l0.4-1l2.7-0.7l1.3-0.7l1-0.7l1-0.7l0.9-1l0.8-1.4l0.6-1.4l0.5-1.9l0.7-1.2l0.4-0.5l0.4-0.5l0.4-0.3
	l0.4-0.3l0.2,0l0.2,0l0.8,0.1l0.2,0l0.2,0l0.1-0.1l0.1-0.1l0.2-0.5l0.5-0.6l0.3-0.5l0.4-0.4l0.7-0.2l1.8-0.9l0.8-0.2h2.8l1.9-0.3
	l1.9-0.6l1.5-0.9l0.9-1.2l-0.1-1.7l-1-1.5l-1.3-1.2l-1.2-0.8h0l2-1.5l0.1-0.5l-0.2-1.1l0.1-0.5l1.7-1.8l0.3-0.5l0.2-3.8l0.3-2.1
	l0.6-1.1l1.4,0.3l1.2,1.3l1.3,0.9l1.6-0.7l2.7-2.6l0.5-1.1l0.1-0.1h-1.9l0.4-0.6l1.6-1.5v0l-2.1-1.5l-0.4-0.7l1.2-0.3l0.4-0.2
	l0.2-0.4l0.4-2.8l0.7-1.2l1-0.9l0.2-0.1l0.5-0.3l0.6-0.4l1.3-0.9l3.4-3.2l0.6-0.3l0.6-0.3l2.2-0.4l2.2-0.4l2-0.1l1.9,0.6l1.6,1.2
	l1.1,1.8l0,0l-0.2,0.2l-0.6,0.7l0,0.1l1.5,0.2l0.2,0.9l-0.1,1l1.5,1l0.8,1.2l1.1,2.6l1.4-0.8l1.4,0.2l2.9,1.2l1.7,0.4l5.5,0.2
	l-0.3,0.5l-0.1,0.7l-0.1,0.7v0l1.1-0.3l0.8,0.4l0.8,0.7l1.1,0.3l0.8-0.2l1.9-1.1l2.8-0.9l1.4-1.7l0.5-0.9l0.5-0.9l1-1.4l0.7,0.7
	l0.5,1.9l0.6,0.4l1.1,0.1l1.8,0.4l0.8,0.1l1.5-0.8l0.4-1.6l-0.4-3.5v0l0.4-0.9l0.9-0.1l1,0.3l0.7,0.4l0.3,0.2l0.3,0.2l1.8,1.8
	l0.9,0.4l1.1-0.1l1.8-0.5l0.4-0.3l0.3-0.4l0.4-0.3l0.7-0.1l0.6,0.1l0.3,0.2l0.2,0l0.2,0l0.5-0.3v-0.6l-0.7-0.6l-0.5-0.7l-0.9-1.8
	l0.8-0.7l0.5,0l1.7,1.1l0.2,0.3l0.3,0.3l0.8,0.1l1.3,0l0.4,0.2l0.1,0.6l1.3,0.1l7.4-0.4l-0.4-0.6v0l0-0.7l0.2-0.9l0.2-0.9l0.5,0.2
	l0.5,0.2l0.6,0.6l0.6,0.6l1,0.3l-0.1-0.3l-0.4-0.7l0.5,0.2l0.3,0.1l0.3,0.2l0.4,0.5l0.9-0.8l0.7-0.4l0.7-0.4l1.5-0.5l0.7,0l0.7,0h0
	l-0.6-0.4l-0.4-0.4l-0.5-0.9l4.2-0.2l1.6-0.6l-0.2-1.2l0.5,0l0.5,0l0.4,0.1l0.4,0.1l0.6,0.3l0.3,0.6h0.6l-0.7-2.1l0,0l0.1-0.4
	l0.1-0.4l1.4-0.6l1.5-0.2l1.7,0.1l1.4,0.4l0.6,0.8h0.6l0.3-0.9l0.2-1l0.4-0.8l1.8-0.7l1.9-1.4l1.1-0.3l-0.1-0.3l-0.2-0.5l-0.2-0.2
	l1.1,0.3l0.4,0.2l-0.2-1l0.1-0.9l0.4-0.3l0.7,0.7l0-1.1l0.1-0.5l0.4-0.5l-0.5-0.7v0l0.3-0.4l0.7-0.1l1,0.2l0.4,0.4l0.9,1.4l0.7,0.4
	l1.8-0.2l1.5-0.9l1.2-1.2l0.7-1.3l0.9,0.7l0.5,0.2l0.5,0.2l0.4,0.2l0.4,0.2l0.4,1l1.1-0.7l1.3-0.1l3.3,0.3l-0.9,0.4l0,0.2l0,0.2v0
	l0.5,0.4l0.9,0.3l0.2,0l0.2,0l1.7,0l1.7,0l1-0.4l1-0.4l1-0.2l2.5,0.1l1-0.1L477.3,250.4z M200.7,173.2l1.1-0.1l2-0.8l1.2-0.3
	l1.4,0.1l-0.2-0.9l0.6-1.2l-0.5-0.5l-0.9,0l-1,0.3l-1.1,0.2l-1.1-0.4l-4.1,2l-0.3,1.2l1.2,0.5L200.7,173.2z M226.2,158.1l1.8-1.6
	l1.1-0.7l1.4-0.5l2.8-0.7l1.3-0.5l3.3-2.1l5-2.5l1.2-0.4l0.7,0l1.3,0.2l0.7,0l0.5-0.2l1-0.7l0.5-0.2l1.3-0.2l2.9,0l1.4-0.2l1.2-0.4
	l-0.6-0.1l-2.8,0.1l-4-0.9l-1.3,0l-6,1.3l-1.9,0.8l-4.8,2.7l-4,1.6l-3.2,1.6l-2.3,2.1l0.5,2.3L226.2,158.1z M279.3,145.3l1.5-0.4
	l0.8-0.3l0.6-1.4l1.4-0.6l0.5-0.5l0-0.5l-0.7-0.2l-2.8,0.1l-1,0.4l-1.2,1l-0.9,1.2l-1.3,2.4l-0.8,1.1v1l2.5-2.2L279.3,145.3z
	 M149.1,381.5l-1,0.1l-1.2,0.4l0.3,0.4l0.5,0.8l0.3,0.4h-0.5v0.5l0.3,0.2l0.3,0.1l0.9,0.1l1.7-0.3l0.8-1.1l0.1-1.2l-0.2-0.5
	L149.1,381.5z M151.5,375.9l-0.7-0.2l-0.9-0.3l-0.7,0.4l-1,1.4l-0.2,1.3l1.6,0.9l3.5,1.1l1.1-1.1l-0.9-2.9l1.3-0.6v-0.5l-1.1,0
	L151.5,375.9z"/>
</svg>
