<?xml version="1.0" encoding="utf-8"?>
<!-- Generator: Adobe Illustrator 21.0.2, SVG Export Plug-In . SVG Version: 6.00 Build 0)  -->
<svg version="1.1" id="Layer_1" xmlns="http://www.w3.org/2000/svg" xmlns:xlink="http://www.w3.org/1999/xlink" x="0px" y="0px"
	 viewBox="0 0 500 500" style="enable-background:new 0 0 500 500;" xml:space="preserve">
<style type="text/css">
	.st0{fill:#387799;}
</style>
<g transform="matrix(11.8081,0,0,11.8081,23.6162,23.6162)">
	<path vector-effect="none" class="st0" d="M19.6,4.2L19.6,4.2L19.6,4.2L19.6,4.2L19.6,4.2l0.1,0.1l0,0l0,0l-0.1,0l0,0.1l0,0.1
		l0.1,0.1l0,0l0,0l0,0l0,0l0,0l0,0l0,0l0,0.1l0,0.1l0,0.1l0,0.1l0.1,0.1L20,5.2l0.1,0l0.1,0l0.1,0l0,0.1l-0.1,0.1l0,0.1l0,0.1l0,0.1
		l0,0.1l0,0l0,0.1l0,0.1l0,0.1l0,0l0,0l0,0.1l0,0l0,0l0,0l0,0l0-0.1l0.1,0l0.1,0l0.1,0l0,0l0,0.1l0,0l0,0l0.1,0l0,0l0,0l0,0l0,0
		l-0.1,0l0,0l0,0l-0.1,0l0,0l0,0l0.1,0l0.1,0l0.1,0l0,0.1l0,0.1l0,0l-0.2,0.1l0,0.1l0,0l0,0l0,0l0,0h0l0.1,0.1l0.1,0.1h0l0-0.1
		l0.1,0.1l0,0.1l0,0.1l-0.1,0.2l0,0.1L20.8,8l0,0.2l0,0.2l-0.1,0.2l-0.1,0.1l-0.1,0.1l0,0l0,0.1l0,0l0,0l0,0l0,0l0.1,0l0,0l0,0.1
		l-0.3,0.4l-0.1,0.1l0,0.1l0,0.1l0,0.1l0.1,0l0,0l0,0.1l0,0.1l0,0.1l0,0.1l0,0.1l0,0.1l0,0l0,0l-0.2,0.3l0,0.1l0,0.1l0,0.1l-0.1,0.1
		l0,0.1l0,0.1l0.1,0.1l0,0.1l0,0.1l-0.1,0.2l0,0l0,0l-0.1,0.2l0,0.1l0,0.1l0,0l0.1,0l0,0l0,0.1l0,0.1l0.1,0h0l0.1,0l0,0l0,0l0.1,0.1
		l0,0l0,0l0.1-0.1l0,0l0,0l0,0l0,0l0,0v0l0,0l0,0l0,0l0,0h0l0.1,0l0.1,0l0.1,0l0.1,0l0,0l0,0l0,0l0,0l0.1,0.2l0,0.1l0,0l0.1,0l0.1,0
		l0,0l0,0l0,0l0,0l0,0l0.1,0.1l0.1,0h0l0.1,0l0,0l0.1,0l0.1,0.1l0,0l0,0l0,0l0.1,0h0l0,0l0,0l0,0l0.1,0l0.2,0l0.1,0l0.1-0.1l0.1,0
		l0,0l0,0.1l0,0l0,0l0,0l0,0l0,0l0.1,0l0.1,0l0,0l0,0l0,0l0,0l0.1,0l0,0l0,0l0,0l0,0l0.1,0l0.1,0l0.1,0l0,0l0,0l0,0.1l0,0l0,0h0
		l0.1,0l0,0l0-0.1l0,0.1l0,0.1l0,0.1l0.1,0l0.1,0l0.1-0.1l0,0l0,0l0,0l0.1,0l0,0l0.1,0l0,0l0,0l0,0l0,0l0,0l0-0.1l0,0l0.1,0l0.1,0.2
		l0.1,0l0,0l0-0.1l0,0l0,0l0,0l0.1-0.1l0,0l0.1-0.1l0,0l0,0l0,0l0-0.1l0,0l0.1-0.1l0,0l0,0l0.1,0l0.3,0l0.1,0l0,0l0.1,0.3l0.1,0.1
		l0.1,0.1l0.2,0.1l0.1,0.1l0.1,0l0.1,0l0.7,0l0.1,0l0,0l0.1,0l0.1,0l0.1,0l0.2,0l0.1,0l0,0l0-0.1l0.2,0.3l0.2,0.1l0,0l0,0.1l0,0.3
		l0,0.2l0.1,0.1l0.1,0.1l0.1,0.1l0.1,0l0.1,0l0,0l0,0.1l0,0l0,0.1l0,0l0,0l0,0.1l0,0l0,0.1L29.2,15l-0.1,0.1l0,0.2l0.1,0.3v0.1
		l0,0.1l0,0.1l0.1,0.1l0,0.1l0,0.1l0,0.2l0,0.1l0,0.1l0.1,0.1l0,0l0.1,0.3l0,0.1l-0.1,0.2l0,0.1l0,0.1l0.1,0.1l0,0.1l0,0.1l-0.1,0.2
		l0,0.1l0,0.1l0,0.1l0,0.1l0.1,0.1l0.2,0.2l0.1,0.3l0.1,0.8l0,0.1l0.1,0.1l0.1,0.1l0.2,0l0.1,0l0,0h0l0,0l0,0l0.1,0.1l0.1,0l0.1,0
		l0.1-0.1l0,0h0l0,0l0.1-0.1l0.2,0l0.1,0l0.1,0l0.1,0l0.1,0l0.1,0l0.1-0.1l0-0.1l0.2-0.1l0.5-0.2l0.1,0l0.1-0.1l0.1,0l0.1,0l0.6,0.4
		l0.1,0.1l0.2,0.3l0.4,0.2l0.1,0.1l-0.1,0.1l-0.1,0.1l-0.1,0.1l0,0.1l0,0.1l0.1,0.1l0,0.2l0,0.1l0.1,0.1l0,0.1l0.1,0.1l0,0.1l0,0.1
		l0,0.1L34.3,22l0,0.1v0.1l0.1,0.3l0,0.1l-0.2,0.6L34,23.4l0,0.1l-0.2,0.8l0,0.1l0,0.1l0,0.1l0,0.1l0.1,0.2l0,0.1l0,0.1L33.7,25
		l0,0.1l-0.1,0.3l-0.1,0.2l-0.1,0.1l-0.1,0.1l-0.1,0.2l0,0.1l0,0l0,0.1l0,0.1l0,0.1l0,0.1l0,0.1l0,0.1v0l0,0.1l0.1,0.1l0,0.1l-0.1,0
		l-0.1,0l0,0v0.1l0.1,0.2l0,0.1l0,0.1l0.1,0.1l0,0.1l0,0.1l0,0.1l0,0.1l0,0.1l0,0.2l0,0.1l0,0.1l0,0l-0.1,0l0,0l0,0l0,0l0,0l0,0.1
		l0,0.1l0,0.1L33,29.1l0,0.1l0.1,0.1l0,0.1l0,0l0,0.1l0,0.1l0,0l0,0.1v0.2l-0.1,0.1l0,0l0,0l0,0.3l0,0.1l0,0.1l-0.1,0.1l-0.1,0.1
		l-0.1,0.1l0,0.1l0,0.1l0,0.1l0,0.1l0,0.1l0,0.1l0,0.1l-0.1,0.1l0,0l0,0l0,0l0,0h-0.2l-0.1,0L32,31.3l0,0.1l0,0.2l0,0.1l0,0.1
		l-0.1,0.1l-0.1,0l-0.2,0l-0.1,0l-0.2,0.2l0,0.1l0.1,0.2l0,0.1l-0.1,0.1l-0.1,0l-0.2,0l-0.1,0l-0.1,0l-0.1,0h-0.1l-0.2,0.1l-0.2,0
		l-0.1,0l-0.1,0L30,32.7l0,0.1l0,0.1l0,0.2l0,0.1l-0.1,0l-0.1,0l-0.1,0l0,0.1l0,0.1l0,0.1l-0.1,0l-0.1,0l0,0.1l0.1,0.2l0,0l0,0l0,0
		l-0.1,0.1l0,0l0,0l0,0.1l0,0.1l-0.1,0.1l-0.1,0l-0.1,0l-0.1,0.1L29,34.5l-0.1,0.1l-0.2-0.1l-0.1,0l0,0l0,0l-0.1-0.2l-0.1-0.1
		l-0.1,0l-0.1,0l-0.1,0l-0.1,0l-0.1,0L27.6,34l-0.1,0l-0.1,0L27.3,34l-0.1,0.1l-0.1,0.2l-0.1,0l-0.1,0l-0.1,0l0,0.1l0,0.1l0,0.1
		l0,0.1l-0.1,0.1l-0.1,0.1l-0.1,0.1l-0.1,0.1l-0.1,0l-0.1,0l-0.1-0.1L26,34.9l-0.1-0.1l-0.2-0.2l-0.3,0l-0.3,0.1l-0.2,0.2l-0.1,0
		l-0.1-0.1l-0.2-0.2l-0.1-0.1l-0.1,0l-0.1,0.1l-0.4,0.2l-0.1,0l-0.2,0l0,0l-0.1,0l0,0l0,0l-0.1-0.1l0,0l-0.2-0.1l0,0l-0.1-0.1l0,0
		l-0.1,0h-0.1l-0.4,0.1l-0.1,0l-0.1,0l-0.6-0.3l0,0L20.9,34L20.8,34l-0.2,0l-0.1,0l-0.3-0.1l-0.1,0l-0.2,0l-0.1,0l-0.4-0.1l-1,0.1
		L17.9,34l0,0l0-0.2l0-0.1l0-0.1l-0.1-0.1l-0.1-0.1l0-0.1l0-0.1l0.1-0.1l0.1-0.1l0.2,0l0,0l0-0.1V33l0,0l0,0l0,0l0,0l0,0l0,0l0,0v0
		l0,0l0,0l0,0l0,0l0-0.1l0,0l0,0l0-0.1l0.1-0.1l0-0.1l-0.1-0.1l0-0.1l0-0.1l0.1,0l0.2,0l0.1,0l0-0.1l0,0l0.2,0l0.1,0l0-0.1L18.9,32
		l0-0.1l0-0.1l0.1,0l0.1,0l0.1,0l0.1-0.1l0,0l0,0l0,0l0.1,0h0l0,0l0,0l0-0.3l0-0.1l0,0l0,0l0,0l0.1,0l0,0l0,0l0,0l0,0l0,0l0-0.1l0,0
		l0.1,0l0,0l0,0l0-0.1l0,0l-0.1-0.1l0,0l0-0.1l0-0.1l0-0.1l0-0.1l0,0l0.1,0l0,0l-0.1-0.1l0-0.1l0-0.1l0.1-0.2l0-0.1l0-0.1l0-0.1
		v-0.1l0,0l0.1,0l0.1,0l0.1-0.1l0-0.1l-0.1,0l-0.1,0l0,0l0-0.1l0,0l0,0l0,0l0,0l0,0l0-0.1l0-0.1l0,0l0.2-0.1l0.1-0.1l0.4-0.3l0-0.1
		v-0.1l-0.2-0.1l0-0.1l0.1-0.1l0,0l0,0l0,0l-0.1,0l0,0l0,0l0.1,0l0.1,0l0.1-0.1l0-0.1l-0.1-0.1l0-0.1l0.1,0l0.1,0l0.1-0.1l0.1-0.1
		l0-0.1l0,0l0,0l0,0l0,0l0.1-0.1l0,0l0.1,0l0,0l0,0l0,0l0,0l0,0l0-0.1l0,0l0.1,0l0.1,0l0,0l0-0.1l0,0l0.1,0l0,0l0-0.1l0-0.4l0-0.1
		l0-0.1L21.8,26l-0.2-0.2v0l-0.1-0.3l-0.1-0.1l-0.1-0.1L21.1,25l0-0.1L21,24.8l-0.1,0l-0.2-0.2l-0.1,0l-0.1,0h-0.3l-0.1,0l0,0l0,0
		l0,0l0,0l-0.1,0l0,0l-0.3-0.1l0,0l0-0.1L19.3,24l-0.1,0l-0.1,0l-0.1,0.1l0,0l0,0l0,0l0,0l0,0l0,0l0,0l-0.2-0.3l-0.1-0.1l0,0l-0.1,0
		l-0.8-0.2l0,0l0,0l0,0l0,0l0,0l-0.1,0l-0.2,0l-0.1,0l-0.7-0.6l-0.1,0l0,0l-0.1-0.1l0,0l0,0l-0.1,0l-0.1,0l-0.1-0.1l-0.1,0l-0.1-0.1
		l-0.2-0.1l0,0l0,0l0,0l-0.1,0l0,0l-0.1-0.1l-0.1,0L15,22l-0.1-0.1l0,0l-0.1-0.1l-0.1,0l0,0l0,0l0,0l0,0l-0.1,0l-0.1-0.1l0,0l0,0
		l0,0l-0.1,0l-0.1,0l-0.1,0l0,0l0,0l-0.1-0.1L13.8,21L12.4,20l-0.1,0l-0.1,0l-0.2,0.1l-0.1,0l-0.3,0l-0.3,0l-0.1,0l0,0l0,0L11.1,20
		l0,0l0,0l-0.1,0l-0.2,0l-0.1-0.1l-0.1,0l-0.1,0l0,0l-0.1-0.1l0,0l0,0l-0.1,0l0,0l0,0l-0.2,0l0,0l-0.1-0.1l0,0l-0.3,0l-0.1,0
		l-0.1-0.1l-0.1-0.1L9,19.2l-0.1,0l-0.1-0.1l0,0l-0.1-0.1l0,0l0-0.1l0-0.1l-0.1-0.1l-0.1-0.1l-0.1-0.1l0,0l0-0.1l0-0.1l0-0.1l0,0
		l-0.1,0l-0.1-0.1l-0.1-0.1l0,0l0,0l-0.1,0h0l0,0l-0.1-0.1l0,0l-0.1,0l0-0.1l0-0.1l0-0.1l-0.2-0.1l-0.1,0l-0.1,0l0,0l0,0l-0.1,0
		l-0.1,0l-0.1,0l-0.1,0l0,0l0-0.1l-0.1,0l0,0l0,0l0,0l-0.1,0l0,0l0,0l-0.2-0.2l-0.1,0H6.2l-0.1,0l0,0L6,16.9l-0.1,0l-0.1,0l0,0
		l0-0.1l0-0.1l0,0l0,0l0,0l0,0l-0.1,0l0,0l-0.1-0.1l0,0L5.1,16l-0.1-0.2l-0.1-0.1v0l0,0l0-0.1l0,0l0-0.1l-0.1-0.2l-0.1-0.1l-0.1-0.1
		l0,0l0-0.1l0,0l0,0l0,0l0,0l0,0l0,0l0,0l0,0l-0.1-0.1l0,0l0,0l0,0l-0.1,0l0,0l0-0.1l-0.1,0l0-0.1l0-0.1l0,0l0,0l0,0l0,0l-0.1,0l0,0
		l0-0.1L4,14.1L4,14L4,14l-0.1-0.1l0,0l0,0l0,0l0,0v0l0,0l0,0l0,0l0,0l-0.2,0l-0.1,0l-0.3-0.2l-0.1-0.1l0-0.1l0,0l-0.2,0l0,0
		l-0.1-0.1l-0.1-0.1l-0.1,0l0,0l-0.1,0l0,0l0,0l0,0l0,0l0,0l0-0.1h0l0,0l0,0l0,0l0,0l0.1-0.2l0.1-0.4l0.1-0.4l0.2-0.6L3,10.7
		l0.2-0.6l0.1-0.4l0.1-0.5l0.1-0.5l0.1-0.4l0.1-0.4l0-0.3l0-0.6l0-0.4l0-0.4l0-0.4l0-0.1L4,5.6l0.2-0.2l0.2-0.2l0.2-0.2l0.2-0.2
		l0.2-0.2l0.1-0.1L5,4.2L5,4.1L5.1,4l0-0.1l0-0.1l0.1-0.1l0-0.1l0,0l0.1-0.3L5.5,3l0.1-0.3l0.1-0.3l0.1-0.2l0,0l0.1,0l0.3-0.1l0.1,0
		l0.2,0l0.2,0l0.1,0l1.3-0.3l1.3-0.3l1.3-0.3l1.3-0.3l0.6-0.1l0.3,0l0.7,0l0.7,0l0.7,0l0.7,0l0.3,0l0.1,0l0.1,0.1l0.1,0.1L16.5,1
		l0.4,0.2l0.4,0.2l0.4,0.2L18,1.9l0.4,0.2l0.4,0.2L19,2.5l0.4,0.2l0.1,0.1l0,0l0,0.1l0,0.1l0,0.1l0.1,0.2l0,0.1l0,0.1l0,0.2l0,0.1
		l-0.1,0.2L19.6,4.2"/>
</g>
</svg>
